^C:\USERS\LOICK\DESKTOP\PPIL\PRJPPIL\PRJPPIL\SINGLETON.CPP
/c /Zi /nologo /W3 /WX- /diagnostics:column /sdl /O2 /Oi /GL /D _MBCS /Gm- /EHsc /MD /GS /Gy /fp:precise /permissive- /Zc:wchar_t /Zc:forScope /Zc:inline /Fo"X64\RELEASE\\" /Fd"X64\RELEASE\VC142.PDB" /Gd /TP /FC C:\USERS\LOICK\DESKTOP\PPIL\PRJPPIL\PRJPPIL\SINGLETON.CPP
^C:\USERS\LOICK\DESKTOP\PPIL\PRJPPIL\PRJPPIL\SOCKET.CPP
/c /Zi /nologo /W3 /WX- /diagnostics:column /sdl /O2 /Oi /GL /D _MBCS /Gm- /EHsc /MD /GS /Gy /fp:precise /permissive- /Zc:wchar_t /Zc:forScope /Zc:inline /Fo"X64\RELEASE\\" /Fd"X64\RELEASE\VC142.PDB" /Gd /TP /FC C:\USERS\LOICK\DESKTOP\PPIL\PRJPPIL\PRJPPIL\SOCKET.CPP
^C:\USERS\LOICK\DESKTOP\PPIL\PRJPPIL\PRJPPIL\ERREUR.CPP
/c /Zi /nologo /W3 /WX- /diagnostics:column /sdl /O2 /Oi /GL /D _MBCS /Gm- /EHsc /MD /GS /Gy /fp:precise /permissive- /Zc:wchar_t /Zc:forScope /Zc:inline /Fo"X64\RELEASE\\" /Fd"X64\RELEASE\VC142.PDB" /Gd /TP /FC C:\USERS\LOICK\DESKTOP\PPIL\PRJPPIL\PRJPPIL\ERREUR.CPP
^C:\USERS\LOICK\DESKTOP\PPIL\PRJPPIL\PRJPPIL\WINSOCK.CPP
/c /Zi /nologo /W3 /WX- /diagnostics:column /sdl /O2 /Oi /GL /D _MBCS /Gm- /EHsc /MD /GS /Gy /fp:precise /permissive- /Zc:wchar_t /Zc:forScope /Zc:inline /Fo"X64\RELEASE\\" /Fd"X64\RELEASE\VC142.PDB" /Gd /TP /FC C:\USERS\LOICK\DESKTOP\PPIL\PRJPPIL\PRJPPIL\WINSOCK.CPP
^C:\USERS\LOICK\DESKTOP\PPIL\PRJPPIL\PRJPPIL\FORMESIMPLE.CPP
/c /Zi /nologo /W3 /WX- /diagnostics:column /sdl /O2 /Oi /GL /D _MBCS /Gm- /EHsc /MD /GS /Gy /fp:precise /permissive- /Zc:wchar_t /Zc:forScope /Zc:inline /Fo"X64\RELEASE\\" /Fd"X64\RELEASE\VC142.PDB" /Gd /TP /FC C:\USERS\LOICK\DESKTOP\PPIL\PRJPPIL\PRJPPIL\FORMESIMPLE.CPP
^C:\USERS\LOICK\DESKTOP\PPIL\PRJPPIL\PRJPPIL\HOMOTHÉTIE.CPP
/c /Zi /nologo /W3 /WX- /diagnostics:column /sdl /O2 /Oi /GL /D _MBCS /Gm- /EHsc /MD /GS /Gy /fp:precise /permissive- /Zc:wchar_t /Zc:forScope /Zc:inline /Fo"X64\RELEASE\\" /Fd"X64\RELEASE\VC142.PDB" /Gd /TP /FC C:\USERS\LOICK\DESKTOP\PPIL\PRJPPIL\PRJPPIL\HOMOTHÉTIE.CPP
^C:\USERS\LOICK\DESKTOP\PPIL\PRJPPIL\PRJPPIL\MATRICE.CPP
/c /Zi /nologo /W3 /WX- /diagnostics:column /sdl /O2 /Oi /GL /D _MBCS /Gm- /EHsc /MD /GS /Gy /fp:precise /permissive- /Zc:wchar_t /Zc:forScope /Zc:inline /Fo"X64\RELEASE\\" /Fd"X64\RELEASE\VC142.PDB" /Gd /TP /FC C:\USERS\LOICK\DESKTOP\PPIL\PRJPPIL\PRJPPIL\MATRICE.CPP
^C:\USERS\LOICK\DESKTOP\PPIL\PRJPPIL\PRJPPIL\ROTATION.CPP
/c /Zi /nologo /W3 /WX- /diagnostics:column /sdl /O2 /Oi /GL /D _MBCS /Gm- /EHsc /MD /GS /Gy /fp:precise /permissive- /Zc:wchar_t /Zc:forScope /Zc:inline /Fo"X64\RELEASE\\" /Fd"X64\RELEASE\VC142.PDB" /Gd /TP /FC C:\USERS\LOICK\DESKTOP\PPIL\PRJPPIL\PRJPPIL\ROTATION.CPP
^C:\USERS\LOICK\DESKTOP\PPIL\PRJPPIL\PRJPPIL\TRANSFORMATION.CPP
/c /Zi /nologo /W3 /WX- /diagnostics:column /sdl /O2 /Oi /GL /D _MBCS /Gm- /EHsc /MD /GS /Gy /fp:precise /permissive- /Zc:wchar_t /Zc:forScope /Zc:inline /Fo"X64\RELEASE\\" /Fd"X64\RELEASE\VC142.PDB" /Gd /TP /FC C:\USERS\LOICK\DESKTOP\PPIL\PRJPPIL\PRJPPIL\TRANSFORMATION.CPP
^C:\USERS\LOICK\DESKTOP\PPIL\PRJPPIL\PRJPPIL\TRANSLATION.CPP
/c /Zi /nologo /W3 /WX- /diagnostics:column /sdl /O2 /Oi /GL /D _MBCS /Gm- /EHsc /MD /GS /Gy /fp:precise /permissive- /Zc:wchar_t /Zc:forScope /Zc:inline /Fo"X64\RELEASE\\" /Fd"X64\RELEASE\VC142.PDB" /Gd /TP /FC C:\USERS\LOICK\DESKTOP\PPIL\PRJPPIL\PRJPPIL\TRANSLATION.CPP
^C:\USERS\LOICK\DESKTOP\PPIL\PRJPPIL\PRJPPIL\SOCKETHANDLER.CPP
/c /Zi /nologo /W3 /WX- /diagnostics:column /sdl /O2 /Oi /GL /D _MBCS /Gm- /EHsc /MD /GS /Gy /fp:precise /permissive- /Zc:wchar_t /Zc:forScope /Zc:inline /Fo"X64\RELEASE\\" /Fd"X64\RELEASE\VC142.PDB" /Gd /TP /FC C:\USERS\LOICK\DESKTOP\PPIL\PRJPPIL\PRJPPIL\SOCKETHANDLER.CPP
^C:\USERS\LOICK\DESKTOP\PPIL\PRJPPIL\PRJPPIL\FORMEGEO.CPP
/c /Zi /nologo /W3 /WX- /diagnostics:column /sdl /O2 /Oi /GL /D _MBCS /Gm- /EHsc /MD /GS /Gy /fp:precise /permissive- /Zc:wchar_t /Zc:forScope /Zc:inline /Fo"X64\RELEASE\\" /Fd"X64\RELEASE\VC142.PDB" /Gd /TP /FC C:\USERS\LOICK\DESKTOP\PPIL\PRJPPIL\PRJPPIL\FORMEGEO.CPP
^C:\USERS\LOICK\DESKTOP\PPIL\PRJPPIL\PRJPPIL\TESTEXCEPTIONS.CPP
/c /Zi /nologo /W3 /WX- /diagnostics:column /sdl /O2 /Oi /GL /D _MBCS /Gm- /EHsc /MD /GS /Gy /fp:precise /permissive- /Zc:wchar_t /Zc:forScope /Zc:inline /Fo"X64\RELEASE\\" /Fd"X64\RELEASE\VC142.PDB" /Gd /TP /FC C:\USERS\LOICK\DESKTOP\PPIL\PRJPPIL\PRJPPIL\TESTEXCEPTIONS.CPP
^C:\USERS\LOICK\DESKTOP\PPIL\PRJPPIL\PRJPPIL\CERCLE.CPP
/c /Zi /nologo /W3 /WX- /diagnostics:column /sdl /O2 /Oi /GL /D _MBCS /Gm- /EHsc /MD /GS /Gy /fp:precise /permissive- /Zc:wchar_t /Zc:forScope /Zc:inline /Fo"X64\RELEASE\\" /Fd"X64\RELEASE\VC142.PDB" /Gd /TP /FC C:\USERS\LOICK\DESKTOP\PPIL\PRJPPIL\PRJPPIL\CERCLE.CPP
^C:\USERS\LOICK\DESKTOP\PPIL\PRJPPIL\PRJPPIL\GROUPE.CPP
/c /Zi /nologo /W3 /WX- /diagnostics:column /sdl /O2 /Oi /GL /D _MBCS /Gm- /EHsc /MD /GS /Gy /fp:precise /permissive- /Zc:wchar_t /Zc:forScope /Zc:inline /Fo"X64\RELEASE\\" /Fd"X64\RELEASE\VC142.PDB" /Gd /TP /FC C:\USERS\LOICK\DESKTOP\PPIL\PRJPPIL\PRJPPIL\GROUPE.CPP
^C:\USERS\LOICK\DESKTOP\PPIL\PRJPPIL\PRJPPIL\POLYGONE.CPP
/c /Zi /nologo /W3 /WX- /diagnostics:column /sdl /O2 /Oi /GL /D _MBCS /Gm- /EHsc /MD /GS /Gy /fp:precise /permissive- /Zc:wchar_t /Zc:forScope /Zc:inline /Fo"X64\RELEASE\\" /Fd"X64\RELEASE\VC142.PDB" /Gd /TP /FC C:\USERS\LOICK\DESKTOP\PPIL\PRJPPIL\PRJPPIL\POLYGONE.CPP
^C:\USERS\LOICK\DESKTOP\PPIL\PRJPPIL\PRJPPIL\TRIANGLE.CPP
/c /Zi /nologo /W3 /WX- /diagnostics:column /sdl /O2 /Oi /GL /D _MBCS /Gm- /EHsc /MD /GS /Gy /fp:precise /permissive- /Zc:wchar_t /Zc:forScope /Zc:inline /Fo"X64\RELEASE\\" /Fd"X64\RELEASE\VC142.PDB" /Gd /TP /FC C:\USERS\LOICK\DESKTOP\PPIL\PRJPPIL\PRJPPIL\TRIANGLE.CPP
^C:\USERS\LOICK\DESKTOP\PPIL\PRJPPIL\PRJPPIL\SEGMENT.CPP
/c /Zi /nologo /W3 /WX- /diagnostics:column /sdl /O2 /Oi /GL /D _MBCS /Gm- /EHsc /MD /GS /Gy /fp:precise /permissive- /Zc:wchar_t /Zc:forScope /Zc:inline /Fo"X64\RELEASE\\" /Fd"X64\RELEASE\VC142.PDB" /Gd /TP /FC C:\USERS\LOICK\DESKTOP\PPIL\PRJPPIL\PRJPPIL\SEGMENT.CPP
^C:\USERS\LOICK\DESKTOP\PPIL\PRJPPIL\PRJPPIL\VECTEUR2D.CPP
/c /Zi /nologo /W3 /WX- /diagnostics:column /sdl /O2 /Oi /GL /D _MBCS /Gm- /EHsc /MD /GS /Gy /fp:precise /permissive- /Zc:wchar_t /Zc:forScope /Zc:inline /Fo"X64\RELEASE\\" /Fd"X64\RELEASE\VC142.PDB" /Gd /TP /FC C:\USERS\LOICK\DESKTOP\PPIL\PRJPPIL\PRJPPIL\VECTEUR2D.CPP
^C:\USERS\LOICK\DESKTOP\PPIL\PRJPPIL\PRJPPIL\TESTCLIENT.CPP
/c /Zi /nologo /W3 /WX- /diagnostics:column /sdl /O2 /Oi /GL /D _MBCS /Gm- /EHsc /MD /GS /Gy /fp:precise /permissive- /Zc:wchar_t /Zc:forScope /Zc:inline /Fo"X64\RELEASE\\" /Fd"X64\RELEASE\VC142.PDB" /Gd /TP /FC C:\USERS\LOICK\DESKTOP\PPIL\PRJPPIL\PRJPPIL\TESTCLIENT.CPP
^C:\USERS\ROSSATI\DOWNLOADS\PPIL\PRJPPIL\PRJPPIL\ERREUR.CPP
/c /Zi /nologo /W3 /WX- /diagnostics:column /sdl /O2 /Oi /GL /D _MBCS /Gm- /EHsc /MD /GS /Gy /fp:precise /permissive- /Zc:wchar_t /Zc:forScope /Zc:inline /Fo"X64\RELEASE\\" /Fd"X64\RELEASE\VC142.PDB" /Gd /TP /FC C:\USERS\ROSSATI\DOWNLOADS\PPIL\PRJPPIL\PRJPPIL\ERREUR.CPP
^C:\USERS\ROSSATI\DOWNLOADS\PPIL\PRJPPIL\PRJPPIL\MATRICE.CPP
/c /Zi /nologo /W3 /WX- /diagnostics:column /sdl /O2 /Oi /GL /D _MBCS /Gm- /EHsc /MD /GS /Gy /fp:precise /permissive- /Zc:wchar_t /Zc:forScope /Zc:inline /Fo"X64\RELEASE\\" /Fd"X64\RELEASE\VC142.PDB" /Gd /TP /FC C:\USERS\ROSSATI\DOWNLOADS\PPIL\PRJPPIL\PRJPPIL\MATRICE.CPP
^C:\USERS\ROSSATI\DOWNLOADS\PPIL\PRJPPIL\PRJPPIL\SOCKETHANDLER.CPP
/c /Zi /nologo /W3 /WX- /diagnostics:column /sdl /O2 /Oi /GL /D _MBCS /Gm- /EHsc /MD /GS /Gy /fp:precise /permissive- /Zc:wchar_t /Zc:forScope /Zc:inline /Fo"X64\RELEASE\\" /Fd"X64\RELEASE\VC142.PDB" /Gd /TP /FC C:\USERS\ROSSATI\DOWNLOADS\PPIL\PRJPPIL\PRJPPIL\SOCKETHANDLER.CPP
^C:\USERS\ROSSATI\DOWNLOADS\PPIL\PRJPPIL\PRJPPIL\SINGLETON.CPP
/c /Zi /nologo /W3 /WX- /diagnostics:column /sdl /O2 /Oi /GL /D _MBCS /Gm- /EHsc /MD /GS /Gy /fp:precise /permissive- /Zc:wchar_t /Zc:forScope /Zc:inline /Fo"X64\RELEASE\\" /Fd"X64\RELEASE\VC142.PDB" /Gd /TP /FC C:\USERS\ROSSATI\DOWNLOADS\PPIL\PRJPPIL\PRJPPIL\SINGLETON.CPP
^C:\USERS\ROSSATI\DOWNLOADS\PPIL\PRJPPIL\PRJPPIL\WINSOCK.CPP
/c /Zi /nologo /W3 /WX- /diagnostics:column /sdl /O2 /Oi /GL /D _MBCS /Gm- /EHsc /MD /GS /Gy /fp:precise /permissive- /Zc:wchar_t /Zc:forScope /Zc:inline /Fo"X64\RELEASE\\" /Fd"X64\RELEASE\VC142.PDB" /Gd /TP /FC C:\USERS\ROSSATI\DOWNLOADS\PPIL\PRJPPIL\PRJPPIL\WINSOCK.CPP
^C:\USERS\ROSSATI\DOWNLOADS\PPIL\PRJPPIL\PRJPPIL\SOCKET.CPP
/c /Zi /nologo /W3 /WX- /diagnostics:column /sdl /O2 /Oi /GL /D _MBCS /Gm- /EHsc /MD /GS /Gy /fp:precise /permissive- /Zc:wchar_t /Zc:forScope /Zc:inline /Fo"X64\RELEASE\\" /Fd"X64\RELEASE\VC142.PDB" /Gd /TP /FC C:\USERS\ROSSATI\DOWNLOADS\PPIL\PRJPPIL\PRJPPIL\SOCKET.CPP
^C:\USERS\ROSSATI\DOWNLOADS\PPIL\PRJPPIL\PRJPPIL\CERCLE.CPP
/c /Zi /nologo /W3 /WX- /diagnostics:column /sdl /O2 /Oi /GL /D _MBCS /Gm- /EHsc /MD /GS /Gy /fp:precise /permissive- /Zc:wchar_t /Zc:forScope /Zc:inline /Fo"X64\RELEASE\\" /Fd"X64\RELEASE\VC142.PDB" /Gd /TP /FC C:\USERS\ROSSATI\DOWNLOADS\PPIL\PRJPPIL\PRJPPIL\CERCLE.CPP
^C:\USERS\ROSSATI\DOWNLOADS\PPIL\PRJPPIL\PRJPPIL\FORMEGEO.CPP
/c /Zi /nologo /W3 /WX- /diagnostics:column /sdl /O2 /Oi /GL /D _MBCS /Gm- /EHsc /MD /GS /Gy /fp:precise /permissive- /Zc:wchar_t /Zc:forScope /Zc:inline /Fo"X64\RELEASE\\" /Fd"X64\RELEASE\VC142.PDB" /Gd /TP /FC C:\USERS\ROSSATI\DOWNLOADS\PPIL\PRJPPIL\PRJPPIL\FORMEGEO.CPP
^C:\USERS\ROSSATI\DOWNLOADS\PPIL\PRJPPIL\PRJPPIL\FORMESIMPLE.CPP
/c /Zi /nologo /W3 /WX- /diagnostics:column /sdl /O2 /Oi /GL /D _MBCS /Gm- /EHsc /MD /GS /Gy /fp:precise /permissive- /Zc:wchar_t /Zc:forScope /Zc:inline /Fo"X64\RELEASE\\" /Fd"X64\RELEASE\VC142.PDB" /Gd /TP /FC C:\USERS\ROSSATI\DOWNLOADS\PPIL\PRJPPIL\PRJPPIL\FORMESIMPLE.CPP
^C:\USERS\ROSSATI\DOWNLOADS\PPIL\PRJPPIL\PRJPPIL\HOMOTHÉTIE.CPP
/c /Zi /nologo /W3 /WX- /diagnostics:column /sdl /O2 /Oi /GL /D _MBCS /Gm- /EHsc /MD /GS /Gy /fp:precise /permissive- /Zc:wchar_t /Zc:forScope /Zc:inline /Fo"X64\RELEASE\\" /Fd"X64\RELEASE\VC142.PDB" /Gd /TP /FC C:\USERS\ROSSATI\DOWNLOADS\PPIL\PRJPPIL\PRJPPIL\HOMOTHÉTIE.CPP
^C:\USERS\ROSSATI\DOWNLOADS\PPIL\PRJPPIL\PRJPPIL\ROTATION.CPP
/c /Zi /nologo /W3 /WX- /diagnostics:column /sdl /O2 /Oi /GL /D _MBCS /Gm- /EHsc /MD /GS /Gy /fp:precise /permissive- /Zc:wchar_t /Zc:forScope /Zc:inline /Fo"X64\RELEASE\\" /Fd"X64\RELEASE\VC142.PDB" /Gd /TP /FC C:\USERS\ROSSATI\DOWNLOADS\PPIL\PRJPPIL\PRJPPIL\ROTATION.CPP
^C:\USERS\ROSSATI\DOWNLOADS\PPIL\PRJPPIL\PRJPPIL\TRANSFORMATION.CPP
/c /Zi /nologo /W3 /WX- /diagnostics:column /sdl /O2 /Oi /GL /D _MBCS /Gm- /EHsc /MD /GS /Gy /fp:precise /permissive- /Zc:wchar_t /Zc:forScope /Zc:inline /Fo"X64\RELEASE\\" /Fd"X64\RELEASE\VC142.PDB" /Gd /TP /FC C:\USERS\ROSSATI\DOWNLOADS\PPIL\PRJPPIL\PRJPPIL\TRANSFORMATION.CPP
^C:\USERS\ROSSATI\DOWNLOADS\PPIL\PRJPPIL\PRJPPIL\TRANSLATION.CPP
/c /Zi /nologo /W3 /WX- /diagnostics:column /sdl /O2 /Oi /GL /D _MBCS /Gm- /EHsc /MD /GS /Gy /fp:precise /permissive- /Zc:wchar_t /Zc:forScope /Zc:inline /Fo"X64\RELEASE\\" /Fd"X64\RELEASE\VC142.PDB" /Gd /TP /FC C:\USERS\ROSSATI\DOWNLOADS\PPIL\PRJPPIL\PRJPPIL\TRANSLATION.CPP
^C:\USERS\ROSSATI\DOWNLOADS\PPIL\PRJPPIL\PRJPPIL\SEGMENT.CPP
/c /Zi /nologo /W3 /WX- /diagnostics:column /sdl /O2 /Oi /GL /D _MBCS /Gm- /EHsc /MD /GS /Gy /fp:precise /permissive- /Zc:wchar_t /Zc:forScope /Zc:inline /Fo"X64\RELEASE\\" /Fd"X64\RELEASE\VC142.PDB" /Gd /TP /FC C:\USERS\ROSSATI\DOWNLOADS\PPIL\PRJPPIL\PRJPPIL\SEGMENT.CPP
^C:\USERS\ROSSATI\DOWNLOADS\PPIL\PRJPPIL\PRJPPIL\VECTEUR2D.CPP
/c /Zi /nologo /W3 /WX- /diagnostics:column /sdl /O2 /Oi /GL /D _MBCS /Gm- /EHsc /MD /GS /Gy /fp:precise /permissive- /Zc:wchar_t /Zc:forScope /Zc:inline /Fo"X64\RELEASE\\" /Fd"X64\RELEASE\VC142.PDB" /Gd /TP /FC C:\USERS\ROSSATI\DOWNLOADS\PPIL\PRJPPIL\PRJPPIL\VECTEUR2D.CPP
^C:\USERS\ROSSATI\DOWNLOADS\PPIL\PRJPPIL\PRJPPIL\TRIANGLE.CPP
/c /Zi /nologo /W3 /WX- /diagnostics:column /sdl /O2 /Oi /GL /D _MBCS /Gm- /EHsc /MD /GS /Gy /fp:precise /permissive- /Zc:wchar_t /Zc:forScope /Zc:inline /Fo"X64\RELEASE\\" /Fd"X64\RELEASE\VC142.PDB" /Gd /TP /FC C:\USERS\ROSSATI\DOWNLOADS\PPIL\PRJPPIL\PRJPPIL\TRIANGLE.CPP
^C:\USERS\ROSSATI\DOWNLOADS\PPIL\PRJPPIL\PRJPPIL\POLYGONE.CPP
/c /Zi /nologo /W3 /WX- /diagnostics:column /sdl /O2 /Oi /GL /D _MBCS /Gm- /EHsc /MD /GS /Gy /fp:precise /permissive- /Zc:wchar_t /Zc:forScope /Zc:inline /Fo"X64\RELEASE\\" /Fd"X64\RELEASE\VC142.PDB" /Gd /TP /FC C:\USERS\ROSSATI\DOWNLOADS\PPIL\PRJPPIL\PRJPPIL\POLYGONE.CPP
^C:\USERS\ROSSATI\DOWNLOADS\PPIL\PRJPPIL\PRJPPIL\TESTCLIENT.CPP
/c /Zi /nologo /W3 /WX- /diagnostics:column /sdl /O2 /Oi /GL /D _MBCS /Gm- /EHsc /MD /GS /Gy /fp:precise /permissive- /Zc:wchar_t /Zc:forScope /Zc:inline /Fo"X64\RELEASE\\" /Fd"X64\RELEASE\VC142.PDB" /Gd /TP /FC C:\USERS\ROSSATI\DOWNLOADS\PPIL\PRJPPIL\PRJPPIL\TESTCLIENT.CPP
^C:\USERS\ROSSATI\DOWNLOADS\PPIL\PRJPPIL\PRJPPIL\GROUPE.CPP
/c /Zi /nologo /W3 /WX- /diagnostics:column /sdl /O2 /Oi /GL /D _MBCS /Gm- /EHsc /MD /GS /Gy /fp:precise /permissive- /Zc:wchar_t /Zc:forScope /Zc:inline /Fo"X64\RELEASE\\" /Fd"X64\RELEASE\VC142.PDB" /Gd /TP /FC C:\USERS\ROSSATI\DOWNLOADS\PPIL\PRJPPIL\PRJPPIL\GROUPE.CPP
^C:\USERS\ROSSATI\SOURCE\REPOS\PPIL\PRJPPIL\PRJPPIL\TESTTRANSLATION.CPP
/c /Zi /nologo /W3 /WX- /diagnostics:column /sdl /O2 /Oi /GL /D _MBCS /Gm- /EHsc /MD /GS /Gy /fp:precise /permissive- /Zc:wchar_t /Zc:forScope /Zc:inline /Fo"X64\RELEASE\\" /Fd"X64\RELEASE\VC142.PDB" /Gd /TP /FC C:\USERS\ROSSATI\SOURCE\REPOS\PPIL\PRJPPIL\PRJPPIL\TESTTRANSLATION.CPP
^C:\USERS\EMMA\DESKTOP\PPIL\PRJPPIL\PRJPPIL\ERREUR.CPP
/c /Zi /nologo /W3 /WX- /diagnostics:column /sdl /O2 /Oi /GL /D _CRT_SECURE_NO_WARNINGS /D _MBCS /Gm- /EHsc /MD /GS /Gy /fp:precise /permissive- /Zc:wchar_t /Zc:forScope /Zc:inline /Fo"X64\RELEASE\\" /Fd"X64\RELEASE\VC142.PDB" /Gd /TP /FC C:\USERS\EMMA\DESKTOP\PPIL\PRJPPIL\PRJPPIL\ERREUR.CPP
^C:\USERS\EMMA\DESKTOP\PPIL\PRJPPIL\PRJPPIL\MATRICE.CPP
/c /Zi /nologo /W3 /WX- /diagnostics:column /sdl /O2 /Oi /GL /D _CRT_SECURE_NO_WARNINGS /D _MBCS /Gm- /EHsc /MD /GS /Gy /fp:precise /permissive- /Zc:wchar_t /Zc:forScope /Zc:inline /Fo"X64\RELEASE\\" /Fd"X64\RELEASE\VC142.PDB" /Gd /TP /FC C:\USERS\EMMA\DESKTOP\PPIL\PRJPPIL\PRJPPIL\MATRICE.CPP
^C:\USERS\EMMA\DESKTOP\PPIL\PRJPPIL\PRJPPIL\SOCKETHANDLER.CPP
/c /Zi /nologo /W3 /WX- /diagnostics:column /sdl /O2 /Oi /GL /D _CRT_SECURE_NO_WARNINGS /D _MBCS /Gm- /EHsc /MD /GS /Gy /fp:precise /permissive- /Zc:wchar_t /Zc:forScope /Zc:inline /Fo"X64\RELEASE\\" /Fd"X64\RELEASE\VC142.PDB" /Gd /TP /FC C:\USERS\EMMA\DESKTOP\PPIL\PRJPPIL\PRJPPIL\SOCKETHANDLER.CPP
^C:\USERS\EMMA\DESKTOP\PPIL\PRJPPIL\PRJPPIL\VECTEUR2D.CPP
/c /Zi /nologo /W3 /WX- /diagnostics:column /sdl /O2 /Oi /GL /D _CRT_SECURE_NO_WARNINGS /D _MBCS /Gm- /EHsc /MD /GS /Gy /fp:precise /permissive- /Zc:wchar_t /Zc:forScope /Zc:inline /Fo"X64\RELEASE\\" /Fd"X64\RELEASE\VC142.PDB" /Gd /TP /FC C:\USERS\EMMA\DESKTOP\PPIL\PRJPPIL\PRJPPIL\VECTEUR2D.CPP
^C:\USERS\EMMA\DESKTOP\PPIL\PRJPPIL\PRJPPIL\SINGLETON.CPP
/c /Zi /nologo /W3 /WX- /diagnostics:column /sdl /O2 /Oi /GL /D _CRT_SECURE_NO_WARNINGS /D _MBCS /Gm- /EHsc /MD /GS /Gy /fp:precise /permissive- /Zc:wchar_t /Zc:forScope /Zc:inline /Fo"X64\RELEASE\\" /Fd"X64\RELEASE\VC142.PDB" /Gd /TP /FC C:\USERS\EMMA\DESKTOP\PPIL\PRJPPIL\PRJPPIL\SINGLETON.CPP
^C:\USERS\EMMA\DESKTOP\PPIL\PRJPPIL\PRJPPIL\WINSOCK.CPP
/c /Zi /nologo /W3 /WX- /diagnostics:column /sdl /O2 /Oi /GL /D _CRT_SECURE_NO_WARNINGS /D _MBCS /Gm- /EHsc /MD /GS /Gy /fp:precise /permissive- /Zc:wchar_t /Zc:forScope /Zc:inline /Fo"X64\RELEASE\\" /Fd"X64\RELEASE\VC142.PDB" /Gd /TP /FC C:\USERS\EMMA\DESKTOP\PPIL\PRJPPIL\PRJPPIL\WINSOCK.CPP
^C:\USERS\EMMA\DESKTOP\PPIL\PRJPPIL\PRJPPIL\SOCKET.CPP
/c /Zi /nologo /W3 /WX- /diagnostics:column /sdl /O2 /Oi /GL /D _CRT_SECURE_NO_WARNINGS /D _MBCS /Gm- /EHsc /MD /GS /Gy /fp:precise /permissive- /Zc:wchar_t /Zc:forScope /Zc:inline /Fo"X64\RELEASE\\" /Fd"X64\RELEASE\VC142.PDB" /Gd /TP /FC C:\USERS\EMMA\DESKTOP\PPIL\PRJPPIL\PRJPPIL\SOCKET.CPP
^C:\USERS\EMMA\DESKTOP\PPIL\PRJPPIL\PRJPPIL\FORMEGEO.CPP
/c /Zi /nologo /W3 /WX- /diagnostics:column /sdl /O2 /Oi /GL /D _CRT_SECURE_NO_WARNINGS /D _MBCS /Gm- /EHsc /MD /GS /Gy /fp:precise /permissive- /Zc:wchar_t /Zc:forScope /Zc:inline /Fo"X64\RELEASE\\" /Fd"X64\RELEASE\VC142.PDB" /Gd /TP /FC C:\USERS\EMMA\DESKTOP\PPIL\PRJPPIL\PRJPPIL\FORMEGEO.CPP
^C:\USERS\EMMA\DESKTOP\PPIL\PRJPPIL\PRJPPIL\FORMESIMPLE.CPP
/c /Zi /nologo /W3 /WX- /diagnostics:column /sdl /O2 /Oi /GL /D _CRT_SECURE_NO_WARNINGS /D _MBCS /Gm- /EHsc /MD /GS /Gy /fp:precise /permissive- /Zc:wchar_t /Zc:forScope /Zc:inline /Fo"X64\RELEASE\\" /Fd"X64\RELEASE\VC142.PDB" /Gd /TP /FC C:\USERS\EMMA\DESKTOP\PPIL\PRJPPIL\PRJPPIL\FORMESIMPLE.CPP
^C:\USERS\EMMA\DESKTOP\PPIL\PRJPPIL\PRJPPIL\CERCLE.CPP
/c /Zi /nologo /W3 /WX- /diagnostics:column /sdl /O2 /Oi /GL /D _CRT_SECURE_NO_WARNINGS /D _MBCS /Gm- /EHsc /MD /GS /Gy /fp:precise /permissive- /Zc:wchar_t /Zc:forScope /Zc:inline /Fo"X64\RELEASE\\" /Fd"X64\RELEASE\VC142.PDB" /Gd /TP /FC C:\USERS\EMMA\DESKTOP\PPIL\PRJPPIL\PRJPPIL\CERCLE.CPP
^C:\USERS\EMMA\DESKTOP\PPIL\PRJPPIL\PRJPPIL\GROUPE.CPP
/c /Zi /nologo /W3 /WX- /diagnostics:column /sdl /O2 /Oi /GL /D _CRT_SECURE_NO_WARNINGS /D _MBCS /Gm- /EHsc /MD /GS /Gy /fp:precise /permissive- /Zc:wchar_t /Zc:forScope /Zc:inline /Fo"X64\RELEASE\\" /Fd"X64\RELEASE\VC142.PDB" /Gd /TP /FC C:\USERS\EMMA\DESKTOP\PPIL\PRJPPIL\PRJPPIL\GROUPE.CPP
^C:\USERS\EMMA\DESKTOP\PPIL\PRJPPIL\PRJPPIL\HOMOTHÉTIE.CPP
/c /Zi /nologo /W3 /WX- /diagnostics:column /sdl /O2 /Oi /GL /D _CRT_SECURE_NO_WARNINGS /D _MBCS /Gm- /EHsc /MD /GS /Gy /fp:precise /permissive- /Zc:wchar_t /Zc:forScope /Zc:inline /Fo"X64\RELEASE\\" /Fd"X64\RELEASE\VC142.PDB" /Gd /TP /FC C:\USERS\EMMA\DESKTOP\PPIL\PRJPPIL\PRJPPIL\HOMOTHÉTIE.CPP
^C:\USERS\EMMA\DESKTOP\PPIL\PRJPPIL\PRJPPIL\POLYGONE.CPP
/c /Zi /nologo /W3 /WX- /diagnostics:column /sdl /O2 /Oi /GL /D _CRT_SECURE_NO_WARNINGS /D _MBCS /Gm- /EHsc /MD /GS /Gy /fp:precise /permissive- /Zc:wchar_t /Zc:forScope /Zc:inline /Fo"X64\RELEASE\\" /Fd"X64\RELEASE\VC142.PDB" /Gd /TP /FC C:\USERS\EMMA\DESKTOP\PPIL\PRJPPIL\PRJPPIL\POLYGONE.CPP
^C:\USERS\EMMA\DESKTOP\PPIL\PRJPPIL\PRJPPIL\ROTATION.CPP
/c /Zi /nologo /W3 /WX- /diagnostics:column /sdl /O2 /Oi /GL /D _CRT_SECURE_NO_WARNINGS /D _MBCS /Gm- /EHsc /MD /GS /Gy /fp:precise /permissive- /Zc:wchar_t /Zc:forScope /Zc:inline /Fo"X64\RELEASE\\" /Fd"X64\RELEASE\VC142.PDB" /Gd /TP /FC C:\USERS\EMMA\DESKTOP\PPIL\PRJPPIL\PRJPPIL\ROTATION.CPP
^C:\USERS\EMMA\DESKTOP\PPIL\PRJPPIL\PRJPPIL\SEGMENT.CPP
/c /Zi /nologo /W3 /WX- /diagnostics:column /sdl /O2 /Oi /GL /D _CRT_SECURE_NO_WARNINGS /D _MBCS /Gm- /EHsc /MD /GS /Gy /fp:precise /permissive- /Zc:wchar_t /Zc:forScope /Zc:inline /Fo"X64\RELEASE\\" /Fd"X64\RELEASE\VC142.PDB" /Gd /TP /FC C:\USERS\EMMA\DESKTOP\PPIL\PRJPPIL\PRJPPIL\SEGMENT.CPP
^C:\USERS\EMMA\DESKTOP\PPIL\PRJPPIL\PRJPPIL\TESTFORME.CPP
/c /Zi /nologo /W3 /WX- /diagnostics:column /sdl /O2 /Oi /GL /D _MBCS /Gm- /EHsc /MD /GS /Gy /fp:precise /permissive- /Zc:wchar_t /Zc:forScope /Zc:inline /Fo"X64\RELEASE\\" /Fd"X64\RELEASE\VC142.PDB" /Gd /TP /FC C:\USERS\EMMA\DESKTOP\PPIL\PRJPPIL\PRJPPIL\TESTFORME.CPP
^C:\USERS\EMMA\DESKTOP\PPIL\PRJPPIL\PRJPPIL\TRANSFORMATION.CPP
/c /Zi /nologo /W3 /WX- /diagnostics:column /sdl /O2 /Oi /GL /D _CRT_SECURE_NO_WARNINGS /D _MBCS /Gm- /EHsc /MD /GS /Gy /fp:precise /permissive- /Zc:wchar_t /Zc:forScope /Zc:inline /Fo"X64\RELEASE\\" /Fd"X64\RELEASE\VC142.PDB" /Gd /TP /FC C:\USERS\EMMA\DESKTOP\PPIL\PRJPPIL\PRJPPIL\TRANSFORMATION.CPP
^C:\USERS\EMMA\DESKTOP\PPIL\PRJPPIL\PRJPPIL\TRANSLATION.CPP
/c /Zi /nologo /W3 /WX- /diagnostics:column /sdl /O2 /Oi /GL /D _CRT_SECURE_NO_WARNINGS /D _MBCS /Gm- /EHsc /MD /GS /Gy /fp:precise /permissive- /Zc:wchar_t /Zc:forScope /Zc:inline /Fo"X64\RELEASE\\" /Fd"X64\RELEASE\VC142.PDB" /Gd /TP /FC C:\USERS\EMMA\DESKTOP\PPIL\PRJPPIL\PRJPPIL\TRANSLATION.CPP
^C:\USERS\EMMA\DESKTOP\PPIL\PRJPPIL\PRJPPIL\TRIANGLE.CPP
/c /Zi /nologo /W3 /WX- /diagnostics:column /sdl /O2 /Oi /GL /D _CRT_SECURE_NO_WARNINGS /D _MBCS /Gm- /EHsc /MD /GS /Gy /fp:precise /permissive- /Zc:wchar_t /Zc:forScope /Zc:inline /Fo"X64\RELEASE\\" /Fd"X64\RELEASE\VC142.PDB" /Gd /TP /FC C:\USERS\EMMA\DESKTOP\PPIL\PRJPPIL\PRJPPIL\TRIANGLE.CPP
^C:\USERS\ROSSATI\SOURCE\REPOS\PPIL\PRJPPIL\PRJPPIL\TESTCLIENT.CPP
/c /Zi /nologo /W3 /WX- /diagnostics:column /sdl /O2 /Oi /GL /D _MBCS /Gm- /EHsc /MD /GS /Gy /fp:precise /permissive- /Zc:wchar_t /Zc:forScope /Zc:inline /Fo"X64\RELEASE\\" /Fd"X64\RELEASE\VC142.PDB" /Gd /TP /FC C:\USERS\ROSSATI\SOURCE\REPOS\PPIL\PRJPPIL\PRJPPIL\TESTCLIENT.CPP
^C:\USERS\ROSSATI\SOURCE\REPOS\PPIL\PRJPPIL\PRJPPIL\TESTTRAME.CPP
/c /Zi /nologo /W3 /WX- /diagnostics:column /sdl /O2 /Oi /GL /D _MBCS /Gm- /EHsc /MD /GS /Gy /fp:precise /permissive- /Zc:wchar_t /Zc:forScope /Zc:inline /Fo"X64\RELEASE\\" /Fd"X64\RELEASE\VC142.PDB" /Gd /TP /FC C:\USERS\ROSSATI\SOURCE\REPOS\PPIL\PRJPPIL\PRJPPIL\TESTTRAME.CPP
^C:\USERS\ROSSATI\SOURCE\REPOS\PPIL\PRJPPIL\PRJPPIL\COMPOSANT.CPP
/c /Zi /nologo /W3 /WX- /diagnostics:column /sdl /O2 /Oi /GL /D _MBCS /Gm- /EHsc /MD /GS /Gy /fp:precise /permissive- /Zc:wchar_t /Zc:forScope /Zc:inline /Fo"X64\RELEASE\\" /Fd"X64\RELEASE\VC142.PDB" /Gd /TP /FC C:\USERS\ROSSATI\SOURCE\REPOS\PPIL\PRJPPIL\PRJPPIL\COMPOSANT.CPP
^C:\USERS\ROSSATI\SOURCE\REPOS\PPIL\PRJPPIL\PRJPPIL\VISITORCERCLE.CPP
/c /Zi /nologo /W3 /WX- /diagnostics:column /sdl /O2 /Oi /GL /D _MBCS /Gm- /EHsc /MD /GS /Gy /fp:precise /permissive- /Zc:wchar_t /Zc:forScope /Zc:inline /Fo"X64\RELEASE\\" /Fd"X64\RELEASE\VC142.PDB" /Gd /TP /FC C:\USERS\ROSSATI\SOURCE\REPOS\PPIL\PRJPPIL\PRJPPIL\VISITORCERCLE.CPP
^C:\USERS\ROSSATI\SOURCE\REPOS\PPIL\PRJPPIL\PRJPPIL\ERREUR.CPP
/c /Zi /nologo /W3 /WX- /diagnostics:column /sdl /O2 /Oi /GL /D _CRT_SECURE_NO_WARNINGS /D _MBCS /Gm- /EHsc /MD /GS /Gy /fp:precise /permissive- /Zc:wchar_t /Zc:forScope /Zc:inline /Fo"X64\RELEASE\\" /Fd"X64\RELEASE\VC142.PDB" /Gd /TP /FC C:\USERS\ROSSATI\SOURCE\REPOS\PPIL\PRJPPIL\PRJPPIL\ERREUR.CPP
^C:\USERS\ROSSATI\SOURCE\REPOS\PPIL\PRJPPIL\PRJPPIL\MATRICE.CPP
/c /Zi /nologo /W3 /WX- /diagnostics:column /sdl /O2 /Oi /GL /D _CRT_SECURE_NO_WARNINGS /D _MBCS /Gm- /EHsc /MD /GS /Gy /fp:precise /permissive- /Zc:wchar_t /Zc:forScope /Zc:inline /Fo"X64\RELEASE\\" /Fd"X64\RELEASE\VC142.PDB" /Gd /TP /FC C:\USERS\ROSSATI\SOURCE\REPOS\PPIL\PRJPPIL\PRJPPIL\MATRICE.CPP
^C:\USERS\ROSSATI\SOURCE\REPOS\PPIL\PRJPPIL\PRJPPIL\SOCKETHANDLER.CPP
/c /Zi /nologo /W3 /WX- /diagnostics:column /sdl /O2 /Oi /GL /D _CRT_SECURE_NO_WARNINGS /D _MBCS /Gm- /EHsc /MD /GS /Gy /fp:precise /permissive- /Zc:wchar_t /Zc:forScope /Zc:inline /Fo"X64\RELEASE\\" /Fd"X64\RELEASE\VC142.PDB" /Gd /TP /FC C:\USERS\ROSSATI\SOURCE\REPOS\PPIL\PRJPPIL\PRJPPIL\SOCKETHANDLER.CPP
^C:\USERS\ROSSATI\SOURCE\REPOS\PPIL\PRJPPIL\PRJPPIL\SINGLETON.CPP
/c /Zi /nologo /W3 /WX- /diagnostics:column /sdl /O2 /Oi /GL /D _CRT_SECURE_NO_WARNINGS /D _MBCS /Gm- /EHsc /MD /GS /Gy /fp:precise /permissive- /Zc:wchar_t /Zc:forScope /Zc:inline /Fo"X64\RELEASE\\" /Fd"X64\RELEASE\VC142.PDB" /Gd /TP /FC C:\USERS\ROSSATI\SOURCE\REPOS\PPIL\PRJPPIL\PRJPPIL\SINGLETON.CPP
^C:\USERS\ROSSATI\SOURCE\REPOS\PPIL\PRJPPIL\PRJPPIL\WINSOCK.CPP
/c /Zi /nologo /W3 /WX- /diagnostics:column /sdl /O2 /Oi /GL /D _CRT_SECURE_NO_WARNINGS /D _MBCS /Gm- /EHsc /MD /GS /Gy /fp:precise /permissive- /Zc:wchar_t /Zc:forScope /Zc:inline /Fo"X64\RELEASE\\" /Fd"X64\RELEASE\VC142.PDB" /Gd /TP /FC C:\USERS\ROSSATI\SOURCE\REPOS\PPIL\PRJPPIL\PRJPPIL\WINSOCK.CPP
^C:\USERS\ROSSATI\SOURCE\REPOS\PPIL\PRJPPIL\PRJPPIL\SOCKET.CPP
/c /Zi /nologo /W3 /WX- /diagnostics:column /sdl /O2 /Oi /GL /D _CRT_SECURE_NO_WARNINGS /D _MBCS /Gm- /EHsc /MD /GS /Gy /fp:precise /permissive- /Zc:wchar_t /Zc:forScope /Zc:inline /Fo"X64\RELEASE\\" /Fd"X64\RELEASE\VC142.PDB" /Gd /TP /FC C:\USERS\ROSSATI\SOURCE\REPOS\PPIL\PRJPPIL\PRJPPIL\SOCKET.CPP
^C:\USERS\ROSSATI\SOURCE\REPOS\PPIL\PRJPPIL\PRJPPIL\FORMEGEO.CPP
/c /Zi /nologo /W3 /WX- /diagnostics:column /sdl /O2 /Oi /GL /D _CRT_SECURE_NO_WARNINGS /D _MBCS /Gm- /EHsc /MD /GS /Gy /fp:precise /permissive- /Zc:wchar_t /Zc:forScope /Zc:inline /Fo"X64\RELEASE\\" /Fd"X64\RELEASE\VC142.PDB" /Gd /TP /FC C:\USERS\ROSSATI\SOURCE\REPOS\PPIL\PRJPPIL\PRJPPIL\FORMEGEO.CPP
^C:\USERS\ROSSATI\SOURCE\REPOS\PPIL\PRJPPIL\PRJPPIL\CERCLE.CPP
/c /Zi /nologo /W3 /WX- /diagnostics:column /sdl /O2 /Oi /GL /D _CRT_SECURE_NO_WARNINGS /D _MBCS /Gm- /EHsc /MD /GS /Gy /fp:precise /permissive- /Zc:wchar_t /Zc:forScope /Zc:inline /Fo"X64\RELEASE\\" /Fd"X64\RELEASE\VC142.PDB" /Gd /TP /FC C:\USERS\ROSSATI\SOURCE\REPOS\PPIL\PRJPPIL\PRJPPIL\CERCLE.CPP
^C:\USERS\ROSSATI\SOURCE\REPOS\PPIL\PRJPPIL\PRJPPIL\FORMESIMPLE.CPP
/c /Zi /nologo /W3 /WX- /diagnostics:column /sdl /O2 /Oi /GL /D _CRT_SECURE_NO_WARNINGS /D _MBCS /Gm- /EHsc /MD /GS /Gy /fp:precise /permissive- /Zc:wchar_t /Zc:forScope /Zc:inline /Fo"X64\RELEASE\\" /Fd"X64\RELEASE\VC142.PDB" /Gd /TP /FC C:\USERS\ROSSATI\SOURCE\REPOS\PPIL\PRJPPIL\PRJPPIL\FORMESIMPLE.CPP
^C:\USERS\ROSSATI\SOURCE\REPOS\PPIL\PRJPPIL\PRJPPIL\HOMOTHÉTIE.CPP
/c /Zi /nologo /W3 /WX- /diagnostics:column /sdl /O2 /Oi /GL /D _CRT_SECURE_NO_WARNINGS /D _MBCS /Gm- /EHsc /MD /GS /Gy /fp:precise /permissive- /Zc:wchar_t /Zc:forScope /Zc:inline /Fo"X64\RELEASE\\" /Fd"X64\RELEASE\VC142.PDB" /Gd /TP /FC C:\USERS\ROSSATI\SOURCE\REPOS\PPIL\PRJPPIL\PRJPPIL\HOMOTHÉTIE.CPP
^C:\USERS\ROSSATI\SOURCE\REPOS\PPIL\PRJPPIL\PRJPPIL\ROTATION.CPP
/c /Zi /nologo /W3 /WX- /diagnostics:column /sdl /O2 /Oi /GL /D _CRT_SECURE_NO_WARNINGS /D _MBCS /Gm- /EHsc /MD /GS /Gy /fp:precise /permissive- /Zc:wchar_t /Zc:forScope /Zc:inline /Fo"X64\RELEASE\\" /Fd"X64\RELEASE\VC142.PDB" /Gd /TP /FC C:\USERS\ROSSATI\SOURCE\REPOS\PPIL\PRJPPIL\PRJPPIL\ROTATION.CPP
^C:\USERS\ROSSATI\SOURCE\REPOS\PPIL\PRJPPIL\PRJPPIL\SEGMENT.CPP
/c /Zi /nologo /W3 /WX- /diagnostics:column /sdl /O2 /Oi /GL /D _CRT_SECURE_NO_WARNINGS /D _MBCS /Gm- /EHsc /MD /GS /Gy /fp:precise /permissive- /Zc:wchar_t /Zc:forScope /Zc:inline /Fo"X64\RELEASE\\" /Fd"X64\RELEASE\VC142.PDB" /Gd /TP /FC C:\USERS\ROSSATI\SOURCE\REPOS\PPIL\PRJPPIL\PRJPPIL\SEGMENT.CPP
^C:\USERS\ROSSATI\SOURCE\REPOS\PPIL\PRJPPIL\PRJPPIL\TRANSFORMATION.CPP
/c /Zi /nologo /W3 /WX- /diagnostics:column /sdl /O2 /Oi /GL /D _CRT_SECURE_NO_WARNINGS /D _MBCS /Gm- /EHsc /MD /GS /Gy /fp:precise /permissive- /Zc:wchar_t /Zc:forScope /Zc:inline /Fo"X64\RELEASE\\" /Fd"X64\RELEASE\VC142.PDB" /Gd /TP /FC C:\USERS\ROSSATI\SOURCE\REPOS\PPIL\PRJPPIL\PRJPPIL\TRANSFORMATION.CPP
^C:\USERS\ROSSATI\SOURCE\REPOS\PPIL\PRJPPIL\PRJPPIL\TRANSLATION.CPP
/c /Zi /nologo /W3 /WX- /diagnostics:column /sdl /O2 /Oi /GL /D _CRT_SECURE_NO_WARNINGS /D _MBCS /Gm- /EHsc /MD /GS /Gy /fp:precise /permissive- /Zc:wchar_t /Zc:forScope /Zc:inline /Fo"X64\RELEASE\\" /Fd"X64\RELEASE\VC142.PDB" /Gd /TP /FC C:\USERS\ROSSATI\SOURCE\REPOS\PPIL\PRJPPIL\PRJPPIL\TRANSLATION.CPP
^C:\USERS\ROSSATI\SOURCE\REPOS\PPIL\PRJPPIL\PRJPPIL\TRIANGLE.CPP
/c /Zi /nologo /W3 /WX- /diagnostics:column /sdl /O2 /Oi /GL /D _CRT_SECURE_NO_WARNINGS /D _MBCS /Gm- /EHsc /MD /GS /Gy /fp:precise /permissive- /Zc:wchar_t /Zc:forScope /Zc:inline /Fo"X64\RELEASE\\" /Fd"X64\RELEASE\VC142.PDB" /Gd /TP /FC C:\USERS\ROSSATI\SOURCE\REPOS\PPIL\PRJPPIL\PRJPPIL\TRIANGLE.CPP
^C:\USERS\ROSSATI\SOURCE\REPOS\PPIL\PRJPPIL\PRJPPIL\VISITORFORMES.CPP
/c /Zi /nologo /W3 /WX- /diagnostics:column /sdl /O2 /Oi /GL /D _CRT_SECURE_NO_WARNINGS /D _MBCS /Gm- /EHsc /MD /GS /Gy /fp:precise /permissive- /Zc:wchar_t /Zc:forScope /Zc:inline /Fo"X64\RELEASE\\" /Fd"X64\RELEASE\VC142.PDB" /Gd /TP /FC C:\USERS\ROSSATI\SOURCE\REPOS\PPIL\PRJPPIL\PRJPPIL\VISITORFORMES.CPP
^C:\USERS\ROSSATI\SOURCE\REPOS\PPIL\PRJPPIL\PRJPPIL\EXPERTCOR.CPP
/c /Zi /nologo /W3 /WX- /diagnostics:column /sdl /O2 /Oi /GL /D _CRT_SECURE_NO_WARNINGS /D _MBCS /Gm- /EHsc /MD /GS /Gy /fp:precise /permissive- /Zc:wchar_t /Zc:forScope /Zc:inline /Fo"X64\RELEASE\\" /Fd"X64\RELEASE\VC142.PDB" /Gd /TP /FC C:\USERS\ROSSATI\SOURCE\REPOS\PPIL\PRJPPIL\PRJPPIL\EXPERTCOR.CPP
^C:\USERS\ROSSATI\SOURCE\REPOS\PPIL\PRJPPIL\PRJPPIL\VECTEUR2D.CPP
/c /Zi /nologo /W3 /WX- /diagnostics:column /sdl /O2 /Oi /GL /D _CRT_SECURE_NO_WARNINGS /D _MBCS /Gm- /EHsc /MD /GS /Gy /fp:precise /permissive- /Zc:wchar_t /Zc:forScope /Zc:inline /Fo"X64\RELEASE\\" /Fd"X64\RELEASE\VC142.PDB" /Gd /TP /FC C:\USERS\ROSSATI\SOURCE\REPOS\PPIL\PRJPPIL\PRJPPIL\VECTEUR2D.CPP
^C:\USERS\ROSSATI\SOURCE\REPOS\PPIL\PRJPPIL\PRJPPIL\TESTFORME.CPP
/c /Zi /nologo /W3 /WX- /diagnostics:column /sdl /O2 /Oi /GL /D _CRT_SECURE_NO_WARNINGS /D _MBCS /Gm- /EHsc /MD /GS /Gy /fp:precise /permissive- /Zc:wchar_t /Zc:forScope /Zc:inline /Fo"X64\RELEASE\\" /Fd"X64\RELEASE\VC142.PDB" /Gd /TP /FC C:\USERS\ROSSATI\SOURCE\REPOS\PPIL\PRJPPIL\PRJPPIL\TESTFORME.CPP
^C:\USERS\ROSSATI\SOURCE\REPOS\PPIL\PRJPPIL\PRJPPIL\EXPERTCORCERCLE.CPP
/c /Zi /nologo /W3 /WX- /diagnostics:column /sdl /O2 /Oi /GL /D _CRT_SECURE_NO_WARNINGS /D _MBCS /Gm- /EHsc /MD /GS /Gy /fp:precise /permissive- /Zc:wchar_t /Zc:forScope /Zc:inline /Fo"X64\RELEASE\\" /Fd"X64\RELEASE\VC142.PDB" /Gd /TP /FC C:\USERS\ROSSATI\SOURCE\REPOS\PPIL\PRJPPIL\PRJPPIL\EXPERTCORCERCLE.CPP
^C:\USERS\ROSSATI\SOURCE\REPOS\PPIL\PRJPPIL\PRJPPIL\EXPERTCORSEGMENT.CPP
/c /Zi /nologo /W3 /WX- /diagnostics:column /sdl /O2 /Oi /GL /D _CRT_SECURE_NO_WARNINGS /D _MBCS /Gm- /EHsc /MD /GS /Gy /fp:precise /permissive- /Zc:wchar_t /Zc:forScope /Zc:inline /Fo"X64\RELEASE\\" /Fd"X64\RELEASE\VC142.PDB" /Gd /TP /FC C:\USERS\ROSSATI\SOURCE\REPOS\PPIL\PRJPPIL\PRJPPIL\EXPERTCORSEGMENT.CPP
^C:\USERS\ROSSATI\SOURCE\REPOS\PPIL\PRJPPIL\PRJPPIL\EXPERTCORTRIANGLE.CPP
/c /Zi /nologo /W3 /WX- /diagnostics:column /sdl /O2 /Oi /GL /D _CRT_SECURE_NO_WARNINGS /D _MBCS /Gm- /EHsc /MD /GS /Gy /fp:precise /permissive- /Zc:wchar_t /Zc:forScope /Zc:inline /Fo"X64\RELEASE\\" /Fd"X64\RELEASE\VC142.PDB" /Gd /TP /FC C:\USERS\ROSSATI\SOURCE\REPOS\PPIL\PRJPPIL\PRJPPIL\EXPERTCORTRIANGLE.CPP
^C:\USERS\ROSSATI\SOURCE\REPOS\PPIL\PRJPPIL\PRJPPIL\POLYGONE.CPP
/c /Zi /nologo /W3 /WX- /diagnostics:column /sdl /O2 /Oi /GL /D _CRT_SECURE_NO_WARNINGS /D _MBCS /Gm- /EHsc /MD /GS /Gy /fp:precise /permissive- /Zc:wchar_t /Zc:forScope /Zc:inline /Fo"X64\RELEASE\\" /Fd"X64\RELEASE\VC142.PDB" /Gd /TP /FC C:\USERS\ROSSATI\SOURCE\REPOS\PPIL\PRJPPIL\PRJPPIL\POLYGONE.CPP
^C:\USERS\ROSSATI\SOURCE\REPOS\PPIL\PRJPPIL\PRJPPIL\GROUPE.CPP
/c /Zi /nologo /W3 /WX- /diagnostics:column /sdl /O2 /Oi /GL /D _CRT_SECURE_NO_WARNINGS /D _MBCS /Gm- /EHsc /MD /GS /Gy /fp:precise /permissive- /Zc:wchar_t /Zc:forScope /Zc:inline /Fo"X64\RELEASE\\" /Fd"X64\RELEASE\VC142.PDB" /Gd /TP /FC C:\USERS\ROSSATI\SOURCE\REPOS\PPIL\PRJPPIL\PRJPPIL\GROUPE.CPP
^C:\USERS\ROSSATI\SOURCE\REPOS\PPIL\PRJPPIL\PRJPPIL\TESTVISITOR.CPP
/c /Zi /nologo /W3 /WX- /diagnostics:column /sdl /O2 /Oi /GL /D _CRT_SECURE_NO_WARNINGS /D _MBCS /Gm- /EHsc /MD /GS /Gy /fp:precise /permissive- /Zc:wchar_t /Zc:forScope /Zc:inline /Fo"X64\RELEASE\\" /Fd"X64\RELEASE\VC142.PDB" /Gd /TP /FC C:\USERS\ROSSATI\SOURCE\REPOS\PPIL\PRJPPIL\PRJPPIL\TESTVISITOR.CPP
^C:\USERS\ROSSATI\SOURCE\REPOS\PPIL\PRJPPIL\PRJPPIL\EXPERTCORPOLYGONE.CPP
/c /Zi /nologo /W3 /WX- /diagnostics:column /sdl /O2 /Oi /GL /D _CRT_SECURE_NO_WARNINGS /D _MBCS /Gm- /EHsc /MD /GS /Gy /fp:precise /permissive- /Zc:wchar_t /Zc:forScope /Zc:inline /Fo"X64\RELEASE\\" /Fd"X64\RELEASE\VC142.PDB" /Gd /TP /FC C:\USERS\ROSSATI\SOURCE\REPOS\PPIL\PRJPPIL\PRJPPIL\EXPERTCORPOLYGONE.CPP
^C:\USERS\ROSSATI\SOURCE\REPOS\PPIL\PRJPPIL\PRJPPIL\EXPERTCORGROUPE.CPP
/c /Zi /nologo /W3 /WX- /diagnostics:column /sdl /O2 /Oi /GL /D _CRT_SECURE_NO_WARNINGS /D _MBCS /Gm- /EHsc /MD /GS /Gy /fp:precise /permissive- /Zc:wchar_t /Zc:forScope /Zc:inline /Fo"X64\RELEASE\\" /Fd"X64\RELEASE\VC142.PDB" /Gd /TP /FC C:\USERS\ROSSATI\SOURCE\REPOS\PPIL\PRJPPIL\PRJPPIL\EXPERTCORGROUPE.CPP
^C:\USERS\EMMA\DESKTOP\PPIL\PRJPPIL\PRJPPIL\EXPERTCOR.CPP
/c /Zi /nologo /W3 /WX- /diagnostics:column /sdl /O2 /Oi /GL /D _CRT_SECURE_NO_WARNINGS /D _MBCS /Gm- /EHsc /MD /GS /Gy /fp:precise /permissive- /Zc:wchar_t /Zc:forScope /Zc:inline /Fo"X64\RELEASE\\" /Fd"X64\RELEASE\VC142.PDB" /Gd /TP /FC C:\USERS\EMMA\DESKTOP\PPIL\PRJPPIL\PRJPPIL\EXPERTCOR.CPP
^C:\USERS\EMMA\DESKTOP\PPIL\PRJPPIL\PRJPPIL\EXPERTCORCERCLE.CPP
/c /Zi /nologo /W3 /WX- /diagnostics:column /sdl /O2 /Oi /GL /D _CRT_SECURE_NO_WARNINGS /D _MBCS /Gm- /EHsc /MD /GS /Gy /fp:precise /permissive- /Zc:wchar_t /Zc:forScope /Zc:inline /Fo"X64\RELEASE\\" /Fd"X64\RELEASE\VC142.PDB" /Gd /TP /FC C:\USERS\EMMA\DESKTOP\PPIL\PRJPPIL\PRJPPIL\EXPERTCORCERCLE.CPP
^C:\USERS\EMMA\DESKTOP\PPIL\PRJPPIL\PRJPPIL\EXPERTCORGROUPE.CPP
/c /Zi /nologo /W3 /WX- /diagnostics:column /sdl /O2 /Oi /GL /D _CRT_SECURE_NO_WARNINGS /D _MBCS /Gm- /EHsc /MD /GS /Gy /fp:precise /permissive- /Zc:wchar_t /Zc:forScope /Zc:inline /Fo"X64\RELEASE\\" /Fd"X64\RELEASE\VC142.PDB" /Gd /TP /FC C:\USERS\EMMA\DESKTOP\PPIL\PRJPPIL\PRJPPIL\EXPERTCORGROUPE.CPP
^C:\USERS\EMMA\DESKTOP\PPIL\PRJPPIL\PRJPPIL\EXPERTCORPOLYGONE.CPP
/c /Zi /nologo /W3 /WX- /diagnostics:column /sdl /O2 /Oi /GL /D _CRT_SECURE_NO_WARNINGS /D _MBCS /Gm- /EHsc /MD /GS /Gy /fp:precise /permissive- /Zc:wchar_t /Zc:forScope /Zc:inline /Fo"X64\RELEASE\\" /Fd"X64\RELEASE\VC142.PDB" /Gd /TP /FC C:\USERS\EMMA\DESKTOP\PPIL\PRJPPIL\PRJPPIL\EXPERTCORPOLYGONE.CPP
^C:\USERS\EMMA\DESKTOP\PPIL\PRJPPIL\PRJPPIL\EXPERTCORSEGMENT.CPP
/c /Zi /nologo /W3 /WX- /diagnostics:column /sdl /O2 /Oi /GL /D _CRT_SECURE_NO_WARNINGS /D _MBCS /Gm- /EHsc /MD /GS /Gy /fp:precise /permissive- /Zc:wchar_t /Zc:forScope /Zc:inline /Fo"X64\RELEASE\\" /Fd"X64\RELEASE\VC142.PDB" /Gd /TP /FC C:\USERS\EMMA\DESKTOP\PPIL\PRJPPIL\PRJPPIL\EXPERTCORSEGMENT.CPP
^C:\USERS\EMMA\DESKTOP\PPIL\PRJPPIL\PRJPPIL\EXPERTCORTRIANGLE.CPP
/c /Zi /nologo /W3 /WX- /diagnostics:column /sdl /O2 /Oi /GL /D _CRT_SECURE_NO_WARNINGS /D _MBCS /Gm- /EHsc /MD /GS /Gy /fp:precise /permissive- /Zc:wchar_t /Zc:forScope /Zc:inline /Fo"X64\RELEASE\\" /Fd"X64\RELEASE\VC142.PDB" /Gd /TP /FC C:\USERS\EMMA\DESKTOP\PPIL\PRJPPIL\PRJPPIL\EXPERTCORTRIANGLE.CPP
^C:\USERS\EMMA\DESKTOP\PPIL\PRJPPIL\PRJPPIL\TESTVISITOR.CPP
/c /Zi /nologo /W3 /WX- /diagnostics:column /sdl /O2 /Oi /GL /D _CRT_SECURE_NO_WARNINGS /D _MBCS /Gm- /EHsc /MD /GS /Gy /fp:precise /permissive- /Zc:wchar_t /Zc:forScope /Zc:inline /Fo"X64\RELEASE\\" /Fd"X64\RELEASE\VC142.PDB" /Gd /TP /FC C:\USERS\EMMA\DESKTOP\PPIL\PRJPPIL\PRJPPIL\TESTVISITOR.CPP
^C:\USERS\EMMA\DESKTOP\PPIL\PRJPPIL\PRJPPIL\VISITORFORMES.CPP
/c /Zi /nologo /W3 /WX- /diagnostics:column /sdl /O2 /Oi /GL /D _CRT_SECURE_NO_WARNINGS /D _MBCS /Gm- /EHsc /MD /GS /Gy /fp:precise /permissive- /Zc:wchar_t /Zc:forScope /Zc:inline /Fo"X64\RELEASE\\" /Fd"X64\RELEASE\VC142.PDB" /Gd /TP /FC C:\USERS\EMMA\DESKTOP\PPIL\PRJPPIL\PRJPPIL\VISITORFORMES.CPP
^C:\USERS\EMMA\DESKTOP\PPIL\PRJPPIL\PRJPPIL\TESTCLIENT.CPP
/c /Zi /nologo /W3 /WX- /diagnostics:column /sdl /O2 /Oi /GL /D _CRT_SECURE_NO_WARNINGS /D _MBCS /Gm- /EHsc /MD /GS /Gy /fp:precise /permissive- /Zc:wchar_t /Zc:forScope /Zc:inline /Fo"X64\RELEASE\\" /Fd"X64\RELEASE\VC142.PDB" /Gd /TP /FC C:\USERS\EMMA\DESKTOP\PPIL\PRJPPIL\PRJPPIL\TESTCLIENT.CPP
^C:\USERS\ROSSATI\SOURCE\REPOS\PPIL5\PRJPPIL\PRJPPIL\CERCLE.CPP
/c /Zi /nologo /W3 /WX- /diagnostics:column /sdl /O2 /Oi /GL /D _CRT_SECURE_NO_WARNINGS /D _MBCS /Gm- /EHsc /MD /GS /Gy /fp:precise /permissive- /Zc:wchar_t /Zc:forScope /Zc:inline /Fo"X64\RELEASE\\" /Fd"X64\RELEASE\VC142.PDB" /Gd /TP /FC C:\USERS\ROSSATI\SOURCE\REPOS\PPIL5\PRJPPIL\PRJPPIL\CERCLE.CPP
^C:\USERS\ROSSATI\SOURCE\REPOS\PPIL5\PRJPPIL\PRJPPIL\ERREUR.CPP
/c /Zi /nologo /W3 /WX- /diagnostics:column /sdl /O2 /Oi /GL /D _CRT_SECURE_NO_WARNINGS /D _MBCS /Gm- /EHsc /MD /GS /Gy /fp:precise /permissive- /Zc:wchar_t /Zc:forScope /Zc:inline /Fo"X64\RELEASE\\" /Fd"X64\RELEASE\VC142.PDB" /Gd /TP /FC C:\USERS\ROSSATI\SOURCE\REPOS\PPIL5\PRJPPIL\PRJPPIL\ERREUR.CPP
^C:\USERS\ROSSATI\SOURCE\REPOS\PPIL5\PRJPPIL\PRJPPIL\EXPERTCORCERCLE.CPP
/c /Zi /nologo /W3 /WX- /diagnostics:column /sdl /O2 /Oi /GL /D _CRT_SECURE_NO_WARNINGS /D _MBCS /Gm- /EHsc /MD /GS /Gy /fp:precise /permissive- /Zc:wchar_t /Zc:forScope /Zc:inline /Fo"X64\RELEASE\\" /Fd"X64\RELEASE\VC142.PDB" /Gd /TP /FC C:\USERS\ROSSATI\SOURCE\REPOS\PPIL5\PRJPPIL\PRJPPIL\EXPERTCORCERCLE.CPP
^C:\USERS\ROSSATI\SOURCE\REPOS\PPIL5\PRJPPIL\PRJPPIL\EXPERTCORPOLYGONE.CPP
/c /Zi /nologo /W3 /WX- /diagnostics:column /sdl /O2 /Oi /GL /D _CRT_SECURE_NO_WARNINGS /D _MBCS /Gm- /EHsc /MD /GS /Gy /fp:precise /permissive- /Zc:wchar_t /Zc:forScope /Zc:inline /Fo"X64\RELEASE\\" /Fd"X64\RELEASE\VC142.PDB" /Gd /TP /FC C:\USERS\ROSSATI\SOURCE\REPOS\PPIL5\PRJPPIL\PRJPPIL\EXPERTCORPOLYGONE.CPP
^C:\USERS\ROSSATI\SOURCE\REPOS\PPIL5\PRJPPIL\PRJPPIL\EXPERTCORSEGMENT.CPP
/c /Zi /nologo /W3 /WX- /diagnostics:column /sdl /O2 /Oi /GL /D _CRT_SECURE_NO_WARNINGS /D _MBCS /Gm- /EHsc /MD /GS /Gy /fp:precise /permissive- /Zc:wchar_t /Zc:forScope /Zc:inline /Fo"X64\RELEASE\\" /Fd"X64\RELEASE\VC142.PDB" /Gd /TP /FC C:\USERS\ROSSATI\SOURCE\REPOS\PPIL5\PRJPPIL\PRJPPIL\EXPERTCORSEGMENT.CPP
^C:\USERS\ROSSATI\SOURCE\REPOS\PPIL5\PRJPPIL\PRJPPIL\EXPERTCORTRIANGLE.CPP
/c /Zi /nologo /W3 /WX- /diagnostics:column /sdl /O2 /Oi /GL /D _CRT_SECURE_NO_WARNINGS /D _MBCS /Gm- /EHsc /MD /GS /Gy /fp:precise /permissive- /Zc:wchar_t /Zc:forScope /Zc:inline /Fo"X64\RELEASE\\" /Fd"X64\RELEASE\VC142.PDB" /Gd /TP /FC C:\USERS\ROSSATI\SOURCE\REPOS\PPIL5\PRJPPIL\PRJPPIL\EXPERTCORTRIANGLE.CPP
^C:\USERS\ROSSATI\SOURCE\REPOS\PPIL5\PRJPPIL\PRJPPIL\FORMEGEO.CPP
/c /Zi /nologo /W3 /WX- /diagnostics:column /sdl /O2 /Oi /GL /D _CRT_SECURE_NO_WARNINGS /D _MBCS /Gm- /EHsc /MD /GS /Gy /fp:precise /permissive- /Zc:wchar_t /Zc:forScope /Zc:inline /Fo"X64\RELEASE\\" /Fd"X64\RELEASE\VC142.PDB" /Gd /TP /FC C:\USERS\ROSSATI\SOURCE\REPOS\PPIL5\PRJPPIL\PRJPPIL\FORMEGEO.CPP
^C:\USERS\ROSSATI\SOURCE\REPOS\PPIL5\PRJPPIL\PRJPPIL\FORMESIMPLE.CPP
/c /Zi /nologo /W3 /WX- /diagnostics:column /sdl /O2 /Oi /GL /D _CRT_SECURE_NO_WARNINGS /D _MBCS /Gm- /EHsc /MD /GS /Gy /fp:precise /permissive- /Zc:wchar_t /Zc:forScope /Zc:inline /Fo"X64\RELEASE\\" /Fd"X64\RELEASE\VC142.PDB" /Gd /TP /FC C:\USERS\ROSSATI\SOURCE\REPOS\PPIL5\PRJPPIL\PRJPPIL\FORMESIMPLE.CPP
^C:\USERS\ROSSATI\SOURCE\REPOS\PPIL5\PRJPPIL\PRJPPIL\GROUPE.CPP
/c /Zi /nologo /W3 /WX- /diagnostics:column /sdl /O2 /Oi /GL /D _CRT_SECURE_NO_WARNINGS /D _MBCS /Gm- /EHsc /MD /GS /Gy /fp:precise /permissive- /Zc:wchar_t /Zc:forScope /Zc:inline /Fo"X64\RELEASE\\" /Fd"X64\RELEASE\VC142.PDB" /Gd /TP /FC C:\USERS\ROSSATI\SOURCE\REPOS\PPIL5\PRJPPIL\PRJPPIL\GROUPE.CPP
^C:\USERS\ROSSATI\SOURCE\REPOS\PPIL5\PRJPPIL\PRJPPIL\HOMOTHÉTIE.CPP
/c /Zi /nologo /W3 /WX- /diagnostics:column /sdl /O2 /Oi /GL /D _CRT_SECURE_NO_WARNINGS /D _MBCS /Gm- /EHsc /MD /GS /Gy /fp:precise /permissive- /Zc:wchar_t /Zc:forScope /Zc:inline /Fo"X64\RELEASE\\" /Fd"X64\RELEASE\VC142.PDB" /Gd /TP /FC C:\USERS\ROSSATI\SOURCE\REPOS\PPIL5\PRJPPIL\PRJPPIL\HOMOTHÉTIE.CPP
^C:\USERS\ROSSATI\SOURCE\REPOS\PPIL5\PRJPPIL\PRJPPIL\MATRICE.CPP
/c /Zi /nologo /W3 /WX- /diagnostics:column /sdl /O2 /Oi /GL /D _CRT_SECURE_NO_WARNINGS /D _MBCS /Gm- /EHsc /MD /GS /Gy /fp:precise /permissive- /Zc:wchar_t /Zc:forScope /Zc:inline /Fo"X64\RELEASE\\" /Fd"X64\RELEASE\VC142.PDB" /Gd /TP /FC C:\USERS\ROSSATI\SOURCE\REPOS\PPIL5\PRJPPIL\PRJPPIL\MATRICE.CPP
^C:\USERS\ROSSATI\SOURCE\REPOS\PPIL5\PRJPPIL\PRJPPIL\POLYGONE.CPP
/c /Zi /nologo /W3 /WX- /diagnostics:column /sdl /O2 /Oi /GL /D _CRT_SECURE_NO_WARNINGS /D _MBCS /Gm- /EHsc /MD /GS /Gy /fp:precise /permissive- /Zc:wchar_t /Zc:forScope /Zc:inline /Fo"X64\RELEASE\\" /Fd"X64\RELEASE\VC142.PDB" /Gd /TP /FC C:\USERS\ROSSATI\SOURCE\REPOS\PPIL5\PRJPPIL\PRJPPIL\POLYGONE.CPP
^C:\USERS\ROSSATI\SOURCE\REPOS\PPIL5\PRJPPIL\PRJPPIL\ROTATION.CPP
/c /Zi /nologo /W3 /WX- /diagnostics:column /sdl /O2 /Oi /GL /D _CRT_SECURE_NO_WARNINGS /D _MBCS /Gm- /EHsc /MD /GS /Gy /fp:precise /permissive- /Zc:wchar_t /Zc:forScope /Zc:inline /Fo"X64\RELEASE\\" /Fd"X64\RELEASE\VC142.PDB" /Gd /TP /FC C:\USERS\ROSSATI\SOURCE\REPOS\PPIL5\PRJPPIL\PRJPPIL\ROTATION.CPP
^C:\USERS\ROSSATI\SOURCE\REPOS\PPIL5\PRJPPIL\PRJPPIL\SEGMENT.CPP
/c /Zi /nologo /W3 /WX- /diagnostics:column /sdl /O2 /Oi /GL /D _CRT_SECURE_NO_WARNINGS /D _MBCS /Gm- /EHsc /MD /GS /Gy /fp:precise /permissive- /Zc:wchar_t /Zc:forScope /Zc:inline /Fo"X64\RELEASE\\" /Fd"X64\RELEASE\VC142.PDB" /Gd /TP /FC C:\USERS\ROSSATI\SOURCE\REPOS\PPIL5\PRJPPIL\PRJPPIL\SEGMENT.CPP
^C:\USERS\ROSSATI\SOURCE\REPOS\PPIL5\PRJPPIL\PRJPPIL\SOCKETHANDLER.CPP
/c /Zi /nologo /W3 /WX- /diagnostics:column /sdl /O2 /Oi /GL /D _CRT_SECURE_NO_WARNINGS /D _MBCS /Gm- /EHsc /MD /GS /Gy /fp:precise /permissive- /Zc:wchar_t /Zc:forScope /Zc:inline /Fo"X64\RELEASE\\" /Fd"X64\RELEASE\VC142.PDB" /Gd /TP /FC C:\USERS\ROSSATI\SOURCE\REPOS\PPIL5\PRJPPIL\PRJPPIL\SOCKETHANDLER.CPP
^C:\USERS\ROSSATI\SOURCE\REPOS\PPIL5\PRJPPIL\PRJPPIL\TRANSFORMATION.CPP
/c /Zi /nologo /W3 /WX- /diagnostics:column /sdl /O2 /Oi /GL /D _CRT_SECURE_NO_WARNINGS /D _MBCS /Gm- /EHsc /MD /GS /Gy /fp:precise /permissive- /Zc:wchar_t /Zc:forScope /Zc:inline /Fo"X64\RELEASE\\" /Fd"X64\RELEASE\VC142.PDB" /Gd /TP /FC C:\USERS\ROSSATI\SOURCE\REPOS\PPIL5\PRJPPIL\PRJPPIL\TRANSFORMATION.CPP
^C:\USERS\ROSSATI\SOURCE\REPOS\PPIL5\PRJPPIL\PRJPPIL\TRANSLATION.CPP
/c /Zi /nologo /W3 /WX- /diagnostics:column /sdl /O2 /Oi /GL /D _CRT_SECURE_NO_WARNINGS /D _MBCS /Gm- /EHsc /MD /GS /Gy /fp:precise /permissive- /Zc:wchar_t /Zc:forScope /Zc:inline /Fo"X64\RELEASE\\" /Fd"X64\RELEASE\VC142.PDB" /Gd /TP /FC C:\USERS\ROSSATI\SOURCE\REPOS\PPIL5\PRJPPIL\PRJPPIL\TRANSLATION.CPP
^C:\USERS\ROSSATI\SOURCE\REPOS\PPIL5\PRJPPIL\PRJPPIL\TRIANGLE.CPP
/c /Zi /nologo /W3 /WX- /diagnostics:column /sdl /O2 /Oi /GL /D _CRT_SECURE_NO_WARNINGS /D _MBCS /Gm- /EHsc /MD /GS /Gy /fp:precise /permissive- /Zc:wchar_t /Zc:forScope /Zc:inline /Fo"X64\RELEASE\\" /Fd"X64\RELEASE\VC142.PDB" /Gd /TP /FC C:\USERS\ROSSATI\SOURCE\REPOS\PPIL5\PRJPPIL\PRJPPIL\TRIANGLE.CPP
^C:\USERS\ROSSATI\SOURCE\REPOS\PPIL5\PRJPPIL\PRJPPIL\VECTEUR2D.CPP
/c /Zi /nologo /W3 /WX- /diagnostics:column /sdl /O2 /Oi /GL /D _CRT_SECURE_NO_WARNINGS /D _MBCS /Gm- /EHsc /MD /GS /Gy /fp:precise /permissive- /Zc:wchar_t /Zc:forScope /Zc:inline /Fo"X64\RELEASE\\" /Fd"X64\RELEASE\VC142.PDB" /Gd /TP /FC C:\USERS\ROSSATI\SOURCE\REPOS\PPIL5\PRJPPIL\PRJPPIL\VECTEUR2D.CPP
^C:\USERS\ROSSATI\SOURCE\REPOS\PPIL5\PRJPPIL\PRJPPIL\SINGLETON.CPP
/c /Zi /nologo /W3 /WX- /diagnostics:column /sdl /O2 /Oi /GL /D _CRT_SECURE_NO_WARNINGS /D _MBCS /Gm- /EHsc /MD /GS /Gy /fp:precise /permissive- /Zc:wchar_t /Zc:forScope /Zc:inline /Fo"X64\RELEASE\\" /Fd"X64\RELEASE\VC142.PDB" /Gd /TP /FC C:\USERS\ROSSATI\SOURCE\REPOS\PPIL5\PRJPPIL\PRJPPIL\SINGLETON.CPP
^C:\USERS\ROSSATI\SOURCE\REPOS\PPIL5\PRJPPIL\PRJPPIL\WINSOCK.CPP
/c /Zi /nologo /W3 /WX- /diagnostics:column /sdl /O2 /Oi /GL /D _CRT_SECURE_NO_WARNINGS /D _MBCS /Gm- /EHsc /MD /GS /Gy /fp:precise /permissive- /Zc:wchar_t /Zc:forScope /Zc:inline /Fo"X64\RELEASE\\" /Fd"X64\RELEASE\VC142.PDB" /Gd /TP /FC C:\USERS\ROSSATI\SOURCE\REPOS\PPIL5\PRJPPIL\PRJPPIL\WINSOCK.CPP
^C:\USERS\ROSSATI\SOURCE\REPOS\PPIL5\PRJPPIL\PRJPPIL\SOCKET.CPP
/c /Zi /nologo /W3 /WX- /diagnostics:column /sdl /O2 /Oi /GL /D _CRT_SECURE_NO_WARNINGS /D _MBCS /Gm- /EHsc /MD /GS /Gy /fp:precise /permissive- /Zc:wchar_t /Zc:forScope /Zc:inline /Fo"X64\RELEASE\\" /Fd"X64\RELEASE\VC142.PDB" /Gd /TP /FC C:\USERS\ROSSATI\SOURCE\REPOS\PPIL5\PRJPPIL\PRJPPIL\SOCKET.CPP
^C:\USERS\ROSSATI\SOURCE\REPOS\PPIL5\PRJPPIL\PRJPPIL\EXPERTCOR.CPP
/c /Zi /nologo /W3 /WX- /diagnostics:column /sdl /O2 /Oi /GL /D _CRT_SECURE_NO_WARNINGS /D _MBCS /Gm- /EHsc /MD /GS /Gy /fp:precise /permissive- /Zc:wchar_t /Zc:forScope /Zc:inline /Fo"X64\RELEASE\\" /Fd"X64\RELEASE\VC142.PDB" /Gd /TP /FC C:\USERS\ROSSATI\SOURCE\REPOS\PPIL5\PRJPPIL\PRJPPIL\EXPERTCOR.CPP
^C:\USERS\ROSSATI\SOURCE\REPOS\PPIL5\PRJPPIL\PRJPPIL\VISITORFORMES.CPP
/c /Zi /nologo /W3 /WX- /diagnostics:column /sdl /O2 /Oi /GL /D _CRT_SECURE_NO_WARNINGS /D _MBCS /Gm- /EHsc /MD /GS /Gy /fp:precise /permissive- /Zc:wchar_t /Zc:forScope /Zc:inline /Fo"X64\RELEASE\\" /Fd"X64\RELEASE\VC142.PDB" /Gd /TP /FC C:\USERS\ROSSATI\SOURCE\REPOS\PPIL5\PRJPPIL\PRJPPIL\VISITORFORMES.CPP
^C:\USERS\ROSSATI\SOURCE\REPOS\PPIL5\PRJPPIL\PRJPPIL\TESTSAVELOAD.CPP
/c /Zi /nologo /W3 /WX- /diagnostics:column /sdl /O2 /Oi /GL /D _CRT_SECURE_NO_WARNINGS /D _MBCS /Gm- /EHsc /MD /GS /Gy /fp:precise /permissive- /Zc:wchar_t /Zc:forScope /Zc:inline /Fo"X64\RELEASE\\" /Fd"X64\RELEASE\VC142.PDB" /Gd /TP /FC C:\USERS\ROSSATI\SOURCE\REPOS\PPIL5\PRJPPIL\PRJPPIL\TESTSAVELOAD.CPP
^C:\USERS\ROSSATI\SOURCE\REPOS\PPIL5\PRJPPIL\PRJPPIL\EXPERTCORGROUPE.CPP
/c /Zi /nologo /W3 /WX- /diagnostics:column /sdl /O2 /Oi /GL /D _CRT_SECURE_NO_WARNINGS /D _MBCS /Gm- /EHsc /MD /GS /Gy /fp:precise /permissive- /Zc:wchar_t /Zc:forScope /Zc:inline /Fo"X64\RELEASE\\" /Fd"X64\RELEASE\VC142.PDB" /Gd /TP /FC C:\USERS\ROSSATI\SOURCE\REPOS\PPIL5\PRJPPIL\PRJPPIL\EXPERTCORGROUPE.CPP
^C:\USERS\ROSSATI\SOURCE\REPOS\PPIL5\PRJPPIL\PRJPPIL\TESTCLIENT.CPP
/c /Zi /nologo /W3 /WX- /diagnostics:column /sdl /O2 /Oi /GL /D _CRT_SECURE_NO_WARNINGS /D _MBCS /Gm- /EHsc /MD /GS /Gy /fp:precise /permissive- /Zc:wchar_t /Zc:forScope /Zc:inline /Fo"X64\RELEASE\\" /Fd"X64\RELEASE\VC142.PDB" /Gd /TP /FC C:\USERS\ROSSATI\SOURCE\REPOS\PPIL5\PRJPPIL\PRJPPIL\TESTCLIENT.CPP
^C:\USERS\EMMA\DESKTOP\PPIL2\PRJPPIL\PRJPPIL\AUTRES\ERREUR.CPP
/c /Zi /nologo /W3 /WX- /diagnostics:column /sdl /O2 /Oi /GL /D _CRT_SECURE_NO_WARNINGS /D _MBCS /Gm- /EHsc /MD /GS /Gy /fp:precise /permissive- /Zc:wchar_t /Zc:forScope /Zc:inline /Fo"X64\RELEASE\\" /Fd"X64\RELEASE\VC142.PDB" /Gd /TP /FC C:\USERS\EMMA\DESKTOP\PPIL2\PRJPPIL\PRJPPIL\AUTRES\ERREUR.CPP
^C:\USERS\EMMA\DESKTOP\PPIL2\PRJPPIL\PRJPPIL\TESTS\TESTCLIENT.CPP
/c /Zi /nologo /W3 /WX- /diagnostics:column /sdl /O2 /Oi /GL /D _CRT_SECURE_NO_WARNINGS /D _MBCS /Gm- /EHsc /MD /GS /Gy /fp:precise /permissive- /Zc:wchar_t /Zc:forScope /Zc:inline /Fo"X64\RELEASE\\" /Fd"X64\RELEASE\VC142.PDB" /Gd /TP /FC C:\USERS\EMMA\DESKTOP\PPIL2\PRJPPIL\PRJPPIL\TESTS\TESTCLIENT.CPP
^C:\USERS\EMMA\DESKTOP\PPIL2\PRJPPIL\PRJPPIL\VISITOR\SAVINGVISITOR\VISITORSAVEFORMES.CPP
/c /Zi /nologo /W3 /WX- /diagnostics:column /sdl /O2 /Oi /GL /D _CRT_SECURE_NO_WARNINGS /D _MBCS /Gm- /EHsc /MD /GS /Gy /fp:precise /permissive- /Zc:wchar_t /Zc:forScope /Zc:inline /Fo"X64\RELEASE\\" /Fd"X64\RELEASE\VC142.PDB" /Gd /TP /FC C:\USERS\EMMA\DESKTOP\PPIL2\PRJPPIL\PRJPPIL\VISITOR\SAVINGVISITOR\VISITORSAVEFORMES.CPP
^C:\USERS\EMMA\DESKTOP\PPIL2\PRJPPIL\PRJPPIL\TESTS\TESTFORME.CPP
/c /Zi /nologo /W3 /WX- /diagnostics:column /sdl /O2 /Oi /GL /D _CRT_SECURE_NO_WARNINGS /D _MBCS /Gm- /EHsc /MD /GS /Gy /fp:precise /permissive- /Zc:wchar_t /Zc:forScope /Zc:inline /Fo"X64\RELEASE\\" /Fd"X64\RELEASE\VC142.PDB" /Gd /TP /FC C:\USERS\EMMA\DESKTOP\PPIL2\PRJPPIL\PRJPPIL\TESTS\TESTFORME.CPP
^C:\USERS\EMMA\DESKTOP\PPIL2\PRJPPIL\PRJPPIL\VISITOR\DRAWINGVISITOR\VISITORDRAWSEGMENT.CPP
/c /Zi /nologo /W3 /WX- /diagnostics:column /sdl /O2 /Oi /GL /D _CRT_SECURE_NO_WARNINGS /D _MBCS /Gm- /EHsc /MD /GS /Gy /fp:precise /permissive- /Zc:wchar_t /Zc:forScope /Zc:inline /Fo"X64\RELEASE\\" /Fd"X64\RELEASE\VC142.PDB" /Gd /TP /FC C:\USERS\EMMA\DESKTOP\PPIL2\PRJPPIL\PRJPPIL\VISITOR\DRAWINGVISITOR\VISITORDRAWSEGMENT.CPP
^C:\USERS\EMMA\DESKTOP\PPIL2\PRJPPIL\PRJPPIL\VISITOR\DRAWINGVISITOR\VISITORDRAWGROUPE.CPP
/c /Zi /nologo /W3 /WX- /diagnostics:column /sdl /O2 /Oi /GL /D _CRT_SECURE_NO_WARNINGS /D _MBCS /Gm- /EHsc /MD /GS /Gy /fp:precise /permissive- /Zc:wchar_t /Zc:forScope /Zc:inline /Fo"X64\RELEASE\\" /Fd"X64\RELEASE\VC142.PDB" /Gd /TP /FC C:\USERS\EMMA\DESKTOP\PPIL2\PRJPPIL\PRJPPIL\VISITOR\DRAWINGVISITOR\VISITORDRAWGROUPE.CPP
^C:\USERS\EMMA\DESKTOP\PPIL2\PRJPPIL\PRJPPIL\VISITOR\DRAWINGVISITOR\VISITORDRAWTRIANGLE.CPP
/c /Zi /nologo /W3 /WX- /diagnostics:column /sdl /O2 /Oi /GL /D _CRT_SECURE_NO_WARNINGS /D _MBCS /Gm- /EHsc /MD /GS /Gy /fp:precise /permissive- /Zc:wchar_t /Zc:forScope /Zc:inline /Fo"X64\RELEASE\\" /Fd"X64\RELEASE\VC142.PDB" /Gd /TP /FC C:\USERS\EMMA\DESKTOP\PPIL2\PRJPPIL\PRJPPIL\VISITOR\DRAWINGVISITOR\VISITORDRAWTRIANGLE.CPP
^C:\USERS\EMMA\DESKTOP\PPIL2\PRJPPIL\PRJPPIL\VISITOR\DRAWINGVISITOR\VISITORDRAWPOLYGONE.CPP
/c /Zi /nologo /W3 /WX- /diagnostics:column /sdl /O2 /Oi /GL /D _CRT_SECURE_NO_WARNINGS /D _MBCS /Gm- /EHsc /MD /GS /Gy /fp:precise /permissive- /Zc:wchar_t /Zc:forScope /Zc:inline /Fo"X64\RELEASE\\" /Fd"X64\RELEASE\VC142.PDB" /Gd /TP /FC C:\USERS\EMMA\DESKTOP\PPIL2\PRJPPIL\PRJPPIL\VISITOR\DRAWINGVISITOR\VISITORDRAWPOLYGONE.CPP
^C:\USERS\EMMA\DESKTOP\PPIL2\PRJPPIL\PRJPPIL\VISITOR\DRAWINGVISITOR\VISITORDRAWCERCLE.CPP
/c /Zi /nologo /W3 /WX- /diagnostics:column /sdl /O2 /Oi /GL /D _CRT_SECURE_NO_WARNINGS /D _MBCS /Gm- /EHsc /MD /GS /Gy /fp:precise /permissive- /Zc:wchar_t /Zc:forScope /Zc:inline /Fo"X64\RELEASE\\" /Fd"X64\RELEASE\VC142.PDB" /Gd /TP /FC C:\USERS\EMMA\DESKTOP\PPIL2\PRJPPIL\PRJPPIL\VISITOR\DRAWINGVISITOR\VISITORDRAWCERCLE.CPP
^C:\USERS\EMMA\DESKTOP\PPIL2\PRJPPIL\PRJPPIL\VISITOR\SAVINGVISITOR\VISITORSAVEGROUPE.CPP
/c /Zi /nologo /W3 /WX- /diagnostics:column /sdl /O2 /Oi /GL /D _CRT_SECURE_NO_WARNINGS /D _MBCS /Gm- /EHsc /MD /GS /Gy /fp:precise /permissive- /Zc:wchar_t /Zc:forScope /Zc:inline /Fo"X64\RELEASE\\" /Fd"X64\RELEASE\VC142.PDB" /Gd /TP /FC C:\USERS\EMMA\DESKTOP\PPIL2\PRJPPIL\PRJPPIL\VISITOR\SAVINGVISITOR\VISITORSAVEGROUPE.CPP
^C:\USERS\EMMA\DESKTOP\PPIL2\PRJPPIL\PRJPPIL\VISITOR\SAVINGVISITOR\VISITORSAVEPOLYGONE.CPP
/c /Zi /nologo /W3 /WX- /diagnostics:column /sdl /O2 /Oi /GL /D _CRT_SECURE_NO_WARNINGS /D _MBCS /Gm- /EHsc /MD /GS /Gy /fp:precise /permissive- /Zc:wchar_t /Zc:forScope /Zc:inline /Fo"X64\RELEASE\\" /Fd"X64\RELEASE\VC142.PDB" /Gd /TP /FC C:\USERS\EMMA\DESKTOP\PPIL2\PRJPPIL\PRJPPIL\VISITOR\SAVINGVISITOR\VISITORSAVEPOLYGONE.CPP
^C:\USERS\EMMA\DESKTOP\PPIL2\PRJPPIL\PRJPPIL\VISITOR\SAVINGVISITOR\VISITORSAVECERCLE.CPP
/c /Zi /nologo /W3 /WX- /diagnostics:column /sdl /O2 /Oi /GL /D _CRT_SECURE_NO_WARNINGS /D _MBCS /Gm- /EHsc /MD /GS /Gy /fp:precise /permissive- /Zc:wchar_t /Zc:forScope /Zc:inline /Fo"X64\RELEASE\\" /Fd"X64\RELEASE\VC142.PDB" /Gd /TP /FC C:\USERS\EMMA\DESKTOP\PPIL2\PRJPPIL\PRJPPIL\VISITOR\SAVINGVISITOR\VISITORSAVECERCLE.CPP
^C:\USERS\EMMA\DESKTOP\PPIL2\PRJPPIL\PRJPPIL\VISITOR\SAVINGVISITOR\VISITORSAVETRIANGLE.CPP
/c /Zi /nologo /W3 /WX- /diagnostics:column /sdl /O2 /Oi /GL /D _CRT_SECURE_NO_WARNINGS /D _MBCS /Gm- /EHsc /MD /GS /Gy /fp:precise /permissive- /Zc:wchar_t /Zc:forScope /Zc:inline /Fo"X64\RELEASE\\" /Fd"X64\RELEASE\VC142.PDB" /Gd /TP /FC C:\USERS\EMMA\DESKTOP\PPIL2\PRJPPIL\PRJPPIL\VISITOR\SAVINGVISITOR\VISITORSAVETRIANGLE.CPP
^C:\USERS\EMMA\DESKTOP\PPIL2\PRJPPIL\PRJPPIL\VISITOR\SAVINGVISITOR\VISITORSAVESEGMENT.CPP
/c /Zi /nologo /W3 /WX- /diagnostics:column /sdl /O2 /Oi /GL /D _CRT_SECURE_NO_WARNINGS /D _MBCS /Gm- /EHsc /MD /GS /Gy /fp:precise /permissive- /Zc:wchar_t /Zc:forScope /Zc:inline /Fo"X64\RELEASE\\" /Fd"X64\RELEASE\VC142.PDB" /Gd /TP /FC C:\USERS\EMMA\DESKTOP\PPIL2\PRJPPIL\PRJPPIL\VISITOR\SAVINGVISITOR\VISITORSAVESEGMENT.CPP
^C:\USERS\EMMA\DESKTOP\PPIL2\PRJPPIL\PRJPPIL\COR\EXPERTCOR.CPP
/c /Zi /nologo /W3 /WX- /diagnostics:column /sdl /O2 /Oi /GL /D _CRT_SECURE_NO_WARNINGS /D _MBCS /Gm- /EHsc /MD /GS /Gy /fp:precise /permissive- /Zc:wchar_t /Zc:forScope /Zc:inline /Fo"X64\RELEASE\\" /Fd"X64\RELEASE\VC142.PDB" /Gd /TP /FC C:\USERS\EMMA\DESKTOP\PPIL2\PRJPPIL\PRJPPIL\COR\EXPERTCOR.CPP
^C:\USERS\EMMA\DESKTOP\PPIL2\PRJPPIL\PRJPPIL\AUTRES\MATRICE.CPP
/c /Zi /nologo /W3 /WX- /diagnostics:column /sdl /O2 /Oi /GL /D _CRT_SECURE_NO_WARNINGS /D _MBCS /Gm- /EHsc /MD /GS /Gy /fp:precise /permissive- /Zc:wchar_t /Zc:forScope /Zc:inline /Fo"X64\RELEASE\\" /Fd"X64\RELEASE\VC142.PDB" /Gd /TP /FC C:\USERS\EMMA\DESKTOP\PPIL2\PRJPPIL\PRJPPIL\AUTRES\MATRICE.CPP
^C:\USERS\EMMA\DESKTOP\PPIL2\PRJPPIL\PRJPPIL\AUTRES\SINGLETON.CPP
/c /Zi /nologo /W3 /WX- /diagnostics:column /sdl /O2 /Oi /GL /D _CRT_SECURE_NO_WARNINGS /D _MBCS /Gm- /EHsc /MD /GS /Gy /fp:precise /permissive- /Zc:wchar_t /Zc:forScope /Zc:inline /Fo"X64\RELEASE\\" /Fd"X64\RELEASE\VC142.PDB" /Gd /TP /FC C:\USERS\EMMA\DESKTOP\PPIL2\PRJPPIL\PRJPPIL\AUTRES\SINGLETON.CPP
^C:\USERS\EMMA\DESKTOP\PPIL2\PRJPPIL\PRJPPIL\AUTRES\SOCKETHANDLER.CPP
/c /Zi /nologo /W3 /WX- /diagnostics:column /sdl /O2 /Oi /GL /D _CRT_SECURE_NO_WARNINGS /D _MBCS /Gm- /EHsc /MD /GS /Gy /fp:precise /permissive- /Zc:wchar_t /Zc:forScope /Zc:inline /Fo"X64\RELEASE\\" /Fd"X64\RELEASE\VC142.PDB" /Gd /TP /FC C:\USERS\EMMA\DESKTOP\PPIL2\PRJPPIL\PRJPPIL\AUTRES\SOCKETHANDLER.CPP
^C:\USERS\EMMA\DESKTOP\PPIL2\PRJPPIL\PRJPPIL\AUTRES\WINSOCK.CPP
/c /Zi /nologo /W3 /WX- /diagnostics:column /sdl /O2 /Oi /GL /D _CRT_SECURE_NO_WARNINGS /D _MBCS /Gm- /EHsc /MD /GS /Gy /fp:precise /permissive- /Zc:wchar_t /Zc:forScope /Zc:inline /Fo"X64\RELEASE\\" /Fd"X64\RELEASE\VC142.PDB" /Gd /TP /FC C:\USERS\EMMA\DESKTOP\PPIL2\PRJPPIL\PRJPPIL\AUTRES\WINSOCK.CPP
^C:\USERS\EMMA\DESKTOP\PPIL2\PRJPPIL\PRJPPIL\COR\EXPERTCORCERCLE.CPP
/c /Zi /nologo /W3 /WX- /diagnostics:column /sdl /O2 /Oi /GL /D _CRT_SECURE_NO_WARNINGS /D _MBCS /Gm- /EHsc /MD /GS /Gy /fp:precise /permissive- /Zc:wchar_t /Zc:forScope /Zc:inline /Fo"X64\RELEASE\\" /Fd"X64\RELEASE\VC142.PDB" /Gd /TP /FC C:\USERS\EMMA\DESKTOP\PPIL2\PRJPPIL\PRJPPIL\COR\EXPERTCORCERCLE.CPP
^C:\USERS\EMMA\DESKTOP\PPIL2\PRJPPIL\PRJPPIL\COR\EXPERTCORPOLYGONE.CPP
/c /Zi /nologo /W3 /WX- /diagnostics:column /sdl /O2 /Oi /GL /D _CRT_SECURE_NO_WARNINGS /D _MBCS /Gm- /EHsc /MD /GS /Gy /fp:precise /permissive- /Zc:wchar_t /Zc:forScope /Zc:inline /Fo"X64\RELEASE\\" /Fd"X64\RELEASE\VC142.PDB" /Gd /TP /FC C:\USERS\EMMA\DESKTOP\PPIL2\PRJPPIL\PRJPPIL\COR\EXPERTCORPOLYGONE.CPP
^C:\USERS\EMMA\DESKTOP\PPIL2\PRJPPIL\PRJPPIL\COR\EXPERTCORSEGMENT.CPP
/c /Zi /nologo /W3 /WX- /diagnostics:column /sdl /O2 /Oi /GL /D _CRT_SECURE_NO_WARNINGS /D _MBCS /Gm- /EHsc /MD /GS /Gy /fp:precise /permissive- /Zc:wchar_t /Zc:forScope /Zc:inline /Fo"X64\RELEASE\\" /Fd"X64\RELEASE\VC142.PDB" /Gd /TP /FC C:\USERS\EMMA\DESKTOP\PPIL2\PRJPPIL\PRJPPIL\COR\EXPERTCORSEGMENT.CPP
^C:\USERS\EMMA\DESKTOP\PPIL2\PRJPPIL\PRJPPIL\COR\EXPERTCORTRIANGLE.CPP
/c /Zi /nologo /W3 /WX- /diagnostics:column /sdl /O2 /Oi /GL /D _CRT_SECURE_NO_WARNINGS /D _MBCS /Gm- /EHsc /MD /GS /Gy /fp:precise /permissive- /Zc:wchar_t /Zc:forScope /Zc:inline /Fo"X64\RELEASE\\" /Fd"X64\RELEASE\VC142.PDB" /Gd /TP /FC C:\USERS\EMMA\DESKTOP\PPIL2\PRJPPIL\PRJPPIL\COR\EXPERTCORTRIANGLE.CPP
^C:\USERS\EMMA\DESKTOP\PPIL2\PRJPPIL\PRJPPIL\FORMESGEOMETRIQUES\FORMEGEO.CPP
/c /Zi /nologo /W3 /WX- /diagnostics:column /sdl /O2 /Oi /GL /D _CRT_SECURE_NO_WARNINGS /D _MBCS /Gm- /EHsc /MD /GS /Gy /fp:precise /permissive- /Zc:wchar_t /Zc:forScope /Zc:inline /Fo"X64\RELEASE\\" /Fd"X64\RELEASE\VC142.PDB" /Gd /TP /FC C:\USERS\EMMA\DESKTOP\PPIL2\PRJPPIL\PRJPPIL\FORMESGEOMETRIQUES\FORMEGEO.CPP
^C:\USERS\EMMA\DESKTOP\PPIL2\PRJPPIL\PRJPPIL\FORMESGEOMETRIQUES\FORMESIMPLE.CPP
/c /Zi /nologo /W3 /WX- /diagnostics:column /sdl /O2 /Oi /GL /D _CRT_SECURE_NO_WARNINGS /D _MBCS /Gm- /EHsc /MD /GS /Gy /fp:precise /permissive- /Zc:wchar_t /Zc:forScope /Zc:inline /Fo"X64\RELEASE\\" /Fd"X64\RELEASE\VC142.PDB" /Gd /TP /FC C:\USERS\EMMA\DESKTOP\PPIL2\PRJPPIL\PRJPPIL\FORMESGEOMETRIQUES\FORMESIMPLE.CPP
^C:\USERS\EMMA\DESKTOP\PPIL2\PRJPPIL\PRJPPIL\FORMESGEOMETRIQUES\VECTEUR2D.CPP
/c /Zi /nologo /W3 /WX- /diagnostics:column /sdl /O2 /Oi /GL /D _CRT_SECURE_NO_WARNINGS /D _MBCS /Gm- /EHsc /MD /GS /Gy /fp:precise /permissive- /Zc:wchar_t /Zc:forScope /Zc:inline /Fo"X64\RELEASE\\" /Fd"X64\RELEASE\VC142.PDB" /Gd /TP /FC C:\USERS\EMMA\DESKTOP\PPIL2\PRJPPIL\PRJPPIL\FORMESGEOMETRIQUES\VECTEUR2D.CPP
^C:\USERS\EMMA\DESKTOP\PPIL2\PRJPPIL\PRJPPIL\VISITOR\DRAWINGVISITOR\DRAWINGVISITOR.CPP
/c /Zi /nologo /W3 /WX- /diagnostics:column /sdl /O2 /Oi /GL /D _CRT_SECURE_NO_WARNINGS /D _MBCS /Gm- /EHsc /MD /GS /Gy /fp:precise /permissive- /Zc:wchar_t /Zc:forScope /Zc:inline /Fo"X64\RELEASE\\" /Fd"X64\RELEASE\VC142.PDB" /Gd /TP /FC C:\USERS\EMMA\DESKTOP\PPIL2\PRJPPIL\PRJPPIL\VISITOR\DRAWINGVISITOR\DRAWINGVISITOR.CPP
^C:\USERS\EMMA\DESKTOP\PPIL2\PRJPPIL\PRJPPIL\VISITOR\SAVINGVISITOR\SAVINGVISITOR.CPP
/c /Zi /nologo /W3 /WX- /diagnostics:column /sdl /O2 /Oi /GL /D _CRT_SECURE_NO_WARNINGS /D _MBCS /Gm- /EHsc /MD /GS /Gy /fp:precise /permissive- /Zc:wchar_t /Zc:forScope /Zc:inline /Fo"X64\RELEASE\\" /Fd"X64\RELEASE\VC142.PDB" /Gd /TP /FC C:\USERS\EMMA\DESKTOP\PPIL2\PRJPPIL\PRJPPIL\VISITOR\SAVINGVISITOR\SAVINGVISITOR.CPP
^C:\USERS\EMMA\DESKTOP\PPIL2\PRJPPIL\PRJPPIL\FORMESGEOMETRIQUES\CERCLE.CPP
/c /Zi /nologo /W3 /WX- /diagnostics:column /sdl /O2 /Oi /GL /D _CRT_SECURE_NO_WARNINGS /D _MBCS /Gm- /EHsc /MD /GS /Gy /fp:precise /permissive- /Zc:wchar_t /Zc:forScope /Zc:inline /Fo"X64\RELEASE\\" /Fd"X64\RELEASE\VC142.PDB" /Gd /TP /FC C:\USERS\EMMA\DESKTOP\PPIL2\PRJPPIL\PRJPPIL\FORMESGEOMETRIQUES\CERCLE.CPP
^C:\USERS\EMMA\DESKTOP\PPIL2\PRJPPIL\PRJPPIL\FORMESGEOMETRIQUES\GROUPE.CPP
/c /Zi /nologo /W3 /WX- /diagnostics:column /sdl /O2 /Oi /GL /D _CRT_SECURE_NO_WARNINGS /D _MBCS /Gm- /EHsc /MD /GS /Gy /fp:precise /permissive- /Zc:wchar_t /Zc:forScope /Zc:inline /Fo"X64\RELEASE\\" /Fd"X64\RELEASE\VC142.PDB" /Gd /TP /FC C:\USERS\EMMA\DESKTOP\PPIL2\PRJPPIL\PRJPPIL\FORMESGEOMETRIQUES\GROUPE.CPP
^C:\USERS\EMMA\DESKTOP\PPIL2\PRJPPIL\PRJPPIL\FORMESGEOMETRIQUES\POLYGONE.CPP
/c /Zi /nologo /W3 /WX- /diagnostics:column /sdl /O2 /Oi /GL /D _CRT_SECURE_NO_WARNINGS /D _MBCS /Gm- /EHsc /MD /GS /Gy /fp:precise /permissive- /Zc:wchar_t /Zc:forScope /Zc:inline /Fo"X64\RELEASE\\" /Fd"X64\RELEASE\VC142.PDB" /Gd /TP /FC C:\USERS\EMMA\DESKTOP\PPIL2\PRJPPIL\PRJPPIL\FORMESGEOMETRIQUES\POLYGONE.CPP
^C:\USERS\EMMA\DESKTOP\PPIL2\PRJPPIL\PRJPPIL\FORMESGEOMETRIQUES\SEGMENT.CPP
/c /Zi /nologo /W3 /WX- /diagnostics:column /sdl /O2 /Oi /GL /D _CRT_SECURE_NO_WARNINGS /D _MBCS /Gm- /EHsc /MD /GS /Gy /fp:precise /permissive- /Zc:wchar_t /Zc:forScope /Zc:inline /Fo"X64\RELEASE\\" /Fd"X64\RELEASE\VC142.PDB" /Gd /TP /FC C:\USERS\EMMA\DESKTOP\PPIL2\PRJPPIL\PRJPPIL\FORMESGEOMETRIQUES\SEGMENT.CPP
^C:\USERS\EMMA\DESKTOP\PPIL2\PRJPPIL\PRJPPIL\FORMESGEOMETRIQUES\TRIANGLE.CPP
/c /Zi /nologo /W3 /WX- /diagnostics:column /sdl /O2 /Oi /GL /D _CRT_SECURE_NO_WARNINGS /D _MBCS /Gm- /EHsc /MD /GS /Gy /fp:precise /permissive- /Zc:wchar_t /Zc:forScope /Zc:inline /Fo"X64\RELEASE\\" /Fd"X64\RELEASE\VC142.PDB" /Gd /TP /FC C:\USERS\EMMA\DESKTOP\PPIL2\PRJPPIL\PRJPPIL\FORMESGEOMETRIQUES\TRIANGLE.CPP
^C:\USERS\EMMA\DESKTOP\PPIL2\PRJPPIL\PRJPPIL\TESTS\TESTCLIENTVISITOR.CPP
/c /Zi /nologo /W3 /WX- /diagnostics:column /sdl /O2 /Oi /GL /D _CRT_SECURE_NO_WARNINGS /D _MBCS /Gm- /EHsc /MD /GS /Gy /fp:precise /permissive- /Zc:wchar_t /Zc:forScope /Zc:inline /Fo"X64\RELEASE\\" /Fd"X64\RELEASE\VC142.PDB" /Gd /TP /FC C:\USERS\EMMA\DESKTOP\PPIL2\PRJPPIL\PRJPPIL\TESTS\TESTCLIENTVISITOR.CPP
^C:\USERS\EMMA\DESKTOP\PPIL2\PRJPPIL\PRJPPIL\TRANSFORMATIONS\HOMOTHÉTIE.CPP
/c /Zi /nologo /W3 /WX- /diagnostics:column /sdl /O2 /Oi /GL /D _CRT_SECURE_NO_WARNINGS /D _MBCS /Gm- /EHsc /MD /GS /Gy /fp:precise /permissive- /Zc:wchar_t /Zc:forScope /Zc:inline /Fo"X64\RELEASE\\" /Fd"X64\RELEASE\VC142.PDB" /Gd /TP /FC C:\USERS\EMMA\DESKTOP\PPIL2\PRJPPIL\PRJPPIL\TRANSFORMATIONS\HOMOTHÉTIE.CPP
^C:\USERS\EMMA\DESKTOP\PPIL2\PRJPPIL\PRJPPIL\TRANSFORMATIONS\ROTATION.CPP
/c /Zi /nologo /W3 /WX- /diagnostics:column /sdl /O2 /Oi /GL /D _CRT_SECURE_NO_WARNINGS /D _MBCS /Gm- /EHsc /MD /GS /Gy /fp:precise /permissive- /Zc:wchar_t /Zc:forScope /Zc:inline /Fo"X64\RELEASE\\" /Fd"X64\RELEASE\VC142.PDB" /Gd /TP /FC C:\USERS\EMMA\DESKTOP\PPIL2\PRJPPIL\PRJPPIL\TRANSFORMATIONS\ROTATION.CPP
^C:\USERS\EMMA\DESKTOP\PPIL2\PRJPPIL\PRJPPIL\TRANSFORMATIONS\TRANSFORMATION.CPP
/c /Zi /nologo /W3 /WX- /diagnostics:column /sdl /O2 /Oi /GL /D _CRT_SECURE_NO_WARNINGS /D _MBCS /Gm- /EHsc /MD /GS /Gy /fp:precise /permissive- /Zc:wchar_t /Zc:forScope /Zc:inline /Fo"X64\RELEASE\\" /Fd"X64\RELEASE\VC142.PDB" /Gd /TP /FC C:\USERS\EMMA\DESKTOP\PPIL2\PRJPPIL\PRJPPIL\TRANSFORMATIONS\TRANSFORMATION.CPP
^C:\USERS\EMMA\DESKTOP\PPIL2\PRJPPIL\PRJPPIL\TRANSFORMATIONS\TRANSLATION.CPP
/c /Zi /nologo /W3 /WX- /diagnostics:column /sdl /O2 /Oi /GL /D _CRT_SECURE_NO_WARNINGS /D _MBCS /Gm- /EHsc /MD /GS /Gy /fp:precise /permissive- /Zc:wchar_t /Zc:forScope /Zc:inline /Fo"X64\RELEASE\\" /Fd"X64\RELEASE\VC142.PDB" /Gd /TP /FC C:\USERS\EMMA\DESKTOP\PPIL2\PRJPPIL\PRJPPIL\TRANSFORMATIONS\TRANSLATION.CPP
^C:\USERS\EMMA\DESKTOP\PPIL2\PRJPPIL\PRJPPIL\TESTS\TESTSAVELOAD.CPP
/c /Zi /nologo /W3 /WX- /diagnostics:column /sdl /O2 /Oi /GL /D _CRT_SECURE_NO_WARNINGS /D _MBCS /Gm- /EHsc /MD /GS /Gy /fp:precise /permissive- /Zc:wchar_t /Zc:forScope /Zc:inline /Fo"X64\RELEASE\\" /Fd"X64\RELEASE\VC142.PDB" /Gd /TP /FC C:\USERS\EMMA\DESKTOP\PPIL2\PRJPPIL\PRJPPIL\TESTS\TESTSAVELOAD.CPP
^C:\USERS\EMMA\DESKTOP\PPIL2\PRJPPIL\PRJPPIL\VISITOR\DRAWINGVISITOR\VISITORDRAWJAVAAWT.CPP
/c /Zi /nologo /W3 /WX- /diagnostics:column /sdl /O2 /Oi /GL /D _CRT_SECURE_NO_WARNINGS /D _MBCS /Gm- /EHsc /MD /GS /Gy /fp:precise /permissive- /Zc:wchar_t /Zc:forScope /Zc:inline /Fo"X64\RELEASE\\" /Fd"X64\RELEASE\VC142.PDB" /Gd /TP /FC C:\USERS\EMMA\DESKTOP\PPIL2\PRJPPIL\PRJPPIL\VISITOR\DRAWINGVISITOR\VISITORDRAWJAVAAWT.CPP
^C:\USERS\EMMA\DESKTOP\PPIL2\PRJPPIL\PRJPPIL\VISITOR\SAVINGVISITOR\VISITORSAVETXT.CPP
/c /Zi /nologo /W3 /WX- /diagnostics:column /sdl /O2 /Oi /GL /D _CRT_SECURE_NO_WARNINGS /D _MBCS /Gm- /EHsc /MD /GS /Gy /fp:precise /permissive- /Zc:wchar_t /Zc:forScope /Zc:inline /Fo"X64\RELEASE\\" /Fd"X64\RELEASE\VC142.PDB" /Gd /TP /FC C:\USERS\EMMA\DESKTOP\PPIL2\PRJPPIL\PRJPPIL\VISITOR\SAVINGVISITOR\VISITORSAVETXT.CPP
^C:\USERS\EMMA\DESKTOP\PPIL2\PRJPPIL\PRJPPIL\COR\EXPERTCORGROUPE.CPP
/c /Zi /nologo /W3 /WX- /diagnostics:column /sdl /O2 /Oi /GL /D _CRT_SECURE_NO_WARNINGS /D _MBCS /Gm- /EHsc /MD /GS /Gy /fp:precise /permissive- /Zc:wchar_t /Zc:forScope /Zc:inline /Fo"X64\RELEASE\\" /Fd"X64\RELEASE\VC142.PDB" /Gd /TP /FC C:\USERS\EMMA\DESKTOP\PPIL2\PRJPPIL\PRJPPIL\COR\EXPERTCORGROUPE.CPP
